<svg xmlns="http://www.w3.org/2000/svg" width="951" height="566">
  <path fill="#F4D05E" d="M508.8 116.2c-.7 0-1.4-.3-1.9-.8-1.1-1-1.1-2.8-.1-3.8s1.9-2 2.9-2.9c1.1-1.1 2.8-1.1 3.8 0 1.1 1.1 1.1 2.8 0 3.8-1 .9-1.9 1.9-2.8 2.9-.4.5-1.2.8-1.9.8zm10.8-10.4c-.7 0-1.5-.3-2-.9-1-1.1-.9-2.8.2-3.8 1-.9 2-1.8 3.1-2.7 1.1-1 2.9-.9 3.8.3 1 1.1.9 2.9-.3 3.8l-3 2.7c-.5.4-1.2.6-1.8.6zm11.4-9.7c-.8 0-1.6-.4-2.1-1-.9-1.2-.7-2.9.4-3.8 1.1-.9 2.2-1.7 3.3-2.5 1.2-.9 2.9-.7 3.8.5.9 1.2.7 2.9-.5 3.8-1.1.8-2.1 1.6-3.2 2.5-.5.4-1.1.5-1.7.5zm12-8.9c-.9 0-1.7-.4-2.2-1.2-.9-1.2-.5-2.9.7-3.8 1.1-.8 2.3-1.6 3.4-2.3 1.3-.8 2.9-.5 3.8.8.8 1.3.5 2.9-.8 3.8-1.1.7-2.2 1.5-3.3 2.3-.5.3-1 .4-1.6.4zm12.6-8c-.9 0-1.8-.5-2.3-1.3-.8-1.3-.3-3 .9-3.7l3.6-2.1c1.3-.7 3-.3 3.7 1 .7 1.3.3 3-1 3.7-1.2.7-2.3 1.3-3.5 2-.4.2-.9.4-1.4.4zm13.1-7.3c-1 0-1.9-.5-2.4-1.5-.7-1.3-.2-3 1.2-3.7 1.2-.6 2.5-1.2 3.7-1.8 1.3-.7 3-.1 3.6 1.3.7 1.4.1 3-1.3 3.6l-3.6 1.8c-.4.2-.8.3-1.2.3zm13.5-6.3c-1.1 0-2.1-.6-2.5-1.6-.6-1.4 0-3 1.4-3.6 1.3-.5 2.5-1.1 3.8-1.6 1.4-.6 3 .1 3.5 1.5.6 1.4-.1 3-1.5 3.5-1.2.5-2.5 1-3.7 1.6-.3.1-.6.2-1 .2zm13.9-5.5c-1.1 0-2.2-.7-2.6-1.8-.5-1.4.2-3 1.7-3.5 1.3-.5 2.6-.9 3.9-1.3 1.4-.5 3 .3 3.4 1.7.5 1.4-.3 3-1.7 3.4-1.3.4-2.5.9-3.8 1.3-.3.2-.6.2-.9.2zm14.3-4.5c-1.2 0-2.3-.8-2.6-2-.4-1.4.4-2.9 1.9-3.4 1.3-.4 2.6-.7 4-1.1 1.5-.4 2.9.5 3.3 1.9.4 1.5-.5 2.9-1.9 3.3-1.3.3-2.6.7-3.9 1.1-.3.2-.6.2-.8.2zm14.5-3.5c-1.3 0-2.4-.9-2.7-2.2-.3-1.5.6-2.9 2.1-3.2 1.3-.3 2.7-.6 4-.8 1.5-.3 2.9.7 3.2 2.2s-.7 2.9-2.2 3.2c-1.3.3-2.6.5-3.9.8h-.5zm14.7-2.6c-1.3 0-2.5-1-2.7-2.3-.2-1.5.8-2.9 2.3-3.1 1.4-.2 2.7-.4 4.1-.5 1.5-.2 2.8.9 3 2.4.2 1.5-.9 2.8-2.4 3-1.3.2-2.7.3-4 .5h-.3zm14.9-1.6c-1.4 0-2.6-1.1-2.7-2.5-.1-1.5 1-2.8 2.5-2.9 1.4-.1 2.7-.2 4.1-.3 1.5-.1 2.8 1.1 2.9 2.6.1 1.5-1.1 2.8-2.6 2.9-1.3.1-2.7.2-4 .3-.1-.1-.2-.1-.2-.1zm31.4-.2h-.2l-1.5-.1c-1.5-.1-2.6-1.4-2.6-2.9.1-1.5 1.3-2.6 2.9-2.6l1.6.1c1.5.1 2.6 1.4 2.5 2.9-.1 1.5-1.3 2.6-2.7 2.6zm-16.5-.4c-1.5 0-2.7-1.2-2.7-2.7 0-1.5 1.2-2.7 2.7-2.7h4.1c1.5 0 2.7 1.2 2.7 2.7 0 1.5-1.2 2.7-2.7 2.7h-2c-.7-.1-1.4-.1-2.1 0zM519.8 442.4c-.6 0-1.3-.2-1.8-.7-1-.9-2-1.9-3-2.8-1.1-1-1.2-2.7-.1-3.8 1-1.1 2.7-1.2 3.8-.1l3 2.7c1.1 1 1.2 2.7.2 3.8-.6.6-1.4.9-2.1.9zM509 432c-.7 0-1.4-.3-1.9-.8-1-1-1.9-2-2.9-3-1-1.1-1-2.8.1-3.8s2.8-1 3.8.1c.9 1 1.8 2 2.8 2.9 1 1.1 1 2.8-.1 3.8-.4.6-1.1.8-1.8.8zm59.2 43.8c-.4 0-.9-.1-1.3-.3-1.2-.6-2.4-1.3-3.6-1.9-1.3-.7-1.8-2.4-1.1-3.7.7-1.3 2.4-1.8 3.7-1.1 1.2.6 2.4 1.3 3.6 1.9 1.3.7 1.8 2.3 1.2 3.7-.6.8-1.6 1.4-2.5 1.4zm-13.1-7.4c-.5 0-1-.1-1.4-.4-1.2-.7-2.3-1.4-3.5-2.2-1.3-.8-1.6-2.5-.8-3.8.8-1.3 2.5-1.6 3.8-.8 1.1.7 2.3 1.4 3.4 2.1 1.3.8 1.7 2.5.9 3.7-.5 1-1.4 1.4-2.4 1.4zM677 500.7c-1.5 0-2.7-1.2-2.7-2.7 0-1.5 1.2-2.7 2.7-2.8 1.3 0 2.7-.1 4-.1 1.6-.1 2.8 1.1 2.8 2.6.1 1.5-1.1 2.8-2.6 2.8-1.4.1-2.8.2-4.2.2zm-10.9 0c-1.4 0-2.8-.1-4.2-.1-1.5-.1-2.7-1.3-2.6-2.8.1-1.5 1.3-2.6 2.7-2.6h.1c1.3.1 2.7.1 4 .1 1.5 0 2.7 1.3 2.7 2.8 0 1.4-1.2 2.6-2.7 2.6zm25.8-.8c-1.4 0-2.6-1.1-2.7-2.5-.1-1.5 1-2.8 2.5-2.9 1.3-.1 2.7-.2 4-.4 1.5-.1 2.8.9 3 2.4.2 1.5-.9 2.8-2.4 3-1.4.1-2.7.3-4.1.4h-.3zm14.8-1.8c-1.3 0-2.5-1-2.7-2.3-.2-1.5.8-2.9 2.3-3.1 1.3-.2 2.7-.4 4-.7 1.5-.3 2.9.7 3.1 2.2.3 1.5-.7 2.9-2.2 3.1-1.4.2-2.7.5-4.1.7-.1.1-.2.1-.4.1zm14.7-2.8c-1.2 0-2.4-.9-2.7-2.1-.3-1.5.6-2.9 2.1-3.2l3.9-.9c1.5-.4 2.9.5 3.3 2 .4 1.5-.5 2.9-2 3.3-1.3.3-2.7.6-4 .9h-.6zm14.5-3.7c-1.2 0-2.3-.8-2.6-2-.4-1.4.4-3 1.8-3.4l3.9-1.2c1.4-.5 3 .3 3.4 1.8.5 1.4-.3 3-1.8 3.4l-3.9 1.2c-.3.1-.5.2-.8.2zm14.2-4.7c-1.1 0-2.1-.7-2.6-1.8-.5-1.4.2-3 1.6-3.5 1.3-.5 2.5-.9 3.8-1.4 1.4-.6 3 .1 3.5 1.5s-.1 3-1.5 3.5l-3.9 1.5c-.3.1-.6.2-.9.2zm134.5-134.7c-.3 0-.6-.1-.9-.2-1.4-.5-2.1-2.1-1.6-3.5.5-1.3.9-2.5 1.4-3.8.5-1.4 2-2.2 3.5-1.7 1.4.5 2.2 2 1.7 3.5-.5 1.3-.9 2.6-1.4 3.9-.5 1.1-1.6 1.8-2.7 1.8zm4.7-14.2c-.3 0-.5 0-.8-.1-1.4-.4-2.3-1.9-1.8-3.4.4-1.3.7-2.6 1.1-3.9.4-1.4 1.9-2.3 3.3-1.9 1.4.4 2.3 1.9 1.9 3.3-.4 1.3-.7 2.7-1.1 4-.3 1.2-1.4 2-2.6 2zm8-40.8h-.3c-1.5-.2-2.6-1.5-2.4-3 .1-1.3.3-2.6.4-3.9.1-1.5 1.4-2.6 2.9-2.5 1.5.1 2.6 1.4 2.5 2.9-.1 1.3-.2 2.7-.4 4-.2 1.5-1.3 2.5-2.7 2.5zm1-14.8s-.1 0 0 0c-1.6-.1-2.8-1.3-2.7-2.8 0-1.3.1-2.7.1-4 0-1.5 1.3-2.7 2.8-2.7 1.5 0 2.7 1.3 2.7 2.8 0 1.4-.1 2.8-.1 4.1-.1 1.4-1.3 2.6-2.8 2.6zm0-15c-1.5 0-2.7-1.2-2.7-2.6 0-1.3-.1-2.7-.2-4-.1-1.5 1.1-2.8 2.6-2.9 1.5-.1 2.8 1.1 2.8 2.6.1 1.4.1 2.8.2 4.1.1 1.5-1.1 2.8-2.7 2.8.1 0 .1 0 0 0zm-.9-14.9c-1.4 0-2.6-1.1-2.7-2.5-.1-1.3-.3-2.7-.4-4-.2-1.5.9-2.8 2.4-3 1.5-.2 2.8.9 3 2.4.2 1.4.3 2.7.4 4.1.1 1.5-1 2.8-2.4 3h-.3zm-1.9-14.9c-1.3 0-2.5-1-2.7-2.3-.2-1.3-.4-2.7-.7-4-.3-1.5.7-2.9 2.2-3.1 1.5-.3 2.9.7 3.1 2.2.2 1.4.5 2.7.7 4.1.2 1.5-.8 2.9-2.3 3.1h-.3zm-2.8-14.7c-1.3 0-2.4-.9-2.7-2.1l-.9-3.9c-.3-1.5.6-2.9 2-3.3 1.5-.3 2.9.6 3.3 2 .3 1.3.6 2.7.9 4 .3 1.5-.6 2.9-2.1 3.2-.1.1-.3.1-.5.1zm-3.6-14.5c-1.2 0-2.3-.8-2.6-2-.4-1.3-.7-2.6-1.1-3.9-.4-1.4.4-3 1.8-3.4 1.4-.4 3 .4 3.4 1.8.4 1.3.8 2.6 1.1 4 .4 1.4-.4 2.9-1.9 3.4-.2.1-.4.1-.7.1zm-4.5-14.3c-1.1 0-2.2-.7-2.6-1.8-.4-1.3-.9-2.5-1.4-3.8-.5-1.4.2-3 1.6-3.5 1.4-.5 3 .2 3.5 1.6.5 1.3.9 2.6 1.4 3.9.5 1.4-.3 3-1.7 3.5-.2.1-.5.1-.8.1zm-5.3-13.9c-1.1 0-2.1-.6-2.5-1.7-.5-1.2-1.1-2.5-1.6-3.7-.6-1.4 0-3 1.4-3.6 1.4-.6 3 0 3.6 1.4.6 1.3 1.1 2.5 1.6 3.8.6 1.4-.1 3-1.4 3.6-.4.1-.8.2-1.1.2zm-6.4-13.6c-1 0-1.9-.5-2.4-1.5-.6-1.2-1.2-2.4-1.9-3.6-.7-1.3-.2-3 1.1-3.7 1.3-.7 3-.2 3.7 1.1.7 1.2 1.3 2.4 1.9 3.7.7 1.3.2 3-1.2 3.7-.3.2-.7.3-1.2.3zm-7.3-13c-.9 0-1.8-.5-2.3-1.3-.7-1.1-1.4-2.3-2.2-3.4-.8-1.3-.5-2.9.8-3.8 1.3-.8 2.9-.5 3.8.8.8 1.1 1.5 2.3 2.3 3.5.8 1.3.4 3-.9 3.7-.5.4-1 .5-1.5.5zM746.8 60c-.3 0-.6 0-.9-.2-1.3-.4-2.5-.9-3.8-1.3-1.4-.5-2.2-2-1.7-3.4.5-1.4 2-2.2 3.4-1.7 1.3.4 2.6.9 3.9 1.3 1.4.5 2.2 2 1.7 3.5-.4 1.1-1.4 1.8-2.6 1.8zm-14.2-4.5c-.2 0-.5 0-.7-.1-1.3-.4-2.6-.7-3.9-1-1.5-.4-2.3-1.9-2-3.3.4-1.5 1.8-2.3 3.3-2 1.3.3 2.7.7 4 1.1 1.4.4 2.3 1.9 1.9 3.3-.3 1.2-1.4 2-2.6 2zm-667 320.6c-1 0-2-.5-2.4-1.5-.6-1.2-1.2-2.5-1.8-3.7-.7-1.4-.1-3 1.3-3.6 1.4-.6 3-.1 3.6 1.3l1.8 3.6c.7 1.3.1 3-1.2 3.7-.4.1-.9.2-1.3.2zm-6.3-13.5c-1.1 0-2.1-.6-2.5-1.7-.5-1.3-1.1-2.5-1.6-3.8-.6-1.4.1-3 1.5-3.5 1.4-.6 3 .1 3.5 1.5.5 1.2 1 2.5 1.5 3.7.6 1.4-.1 3-1.4 3.6-.2.1-.6.2-1 .2zm-5.3-14c-1.1 0-2.2-.7-2.6-1.8-.5-1.3-.9-2.6-1.3-3.9-.5-1.4.3-3 1.7-3.4 1.4-.5 3 .3 3.4 1.7.4 1.3.8 2.6 1.3 3.8.5 1.4-.3 3-1.7 3.5-.2.1-.5.1-.8.1zm-4.5-14.3c-1.2 0-2.3-.8-2.6-2-.4-1.3-.7-2.7-1.1-4-.4-1.5.5-2.9 2-3.3 1.5-.4 2.9.5 3.3 2 .3 1.3.7 2.6 1 3.9.4 1.4-.5 2.9-1.9 3.3-.2.1-.4.1-.7.1zM46 319.8c-1.3 0-2.4-.9-2.7-2.2-.3-1.3-.5-2.7-.8-4-.3-1.5.7-2.9 2.2-3.2 1.5-.3 2.9.7 3.2 2.2.2 1.3.5 2.6.8 4 .3 1.5-.6 2.9-2.1 3.2H46zm-2.5-14.7c-1.3 0-2.5-1-2.7-2.3-.2-1.4-.4-2.7-.5-4.1-.2-1.5.9-2.8 2.4-3 1.5-.2 2.8.9 3 2.4.2 1.3.3 2.7.5 4 .2 1.5-.8 2.9-2.3 3.1-.1-.1-.2-.1-.4-.1zM42 290.2c-1.4 0-2.6-1.1-2.7-2.5-.1-1.4-.2-2.7-.3-4.1-.1-1.5 1.1-2.8 2.6-2.9 1.5-.1 2.8 1.1 2.9 2.6.1 1.3.2 2.7.3 4 .1 1.5-1 2.8-2.5 2.9H42zm-.6-14.9c-1.5 0-2.7-1.2-2.7-2.7v-1.5c0-1.5 1.2-2.7 2.7-2.7s2.7 1.2 2.7 2.7v1.5c0 1.4-1.2 2.7-2.7 2.7zM133 456.4c-.6 0-1.1-.2-1.6-.5-1.1-.8-2.2-1.7-3.3-2.5-1.2-.9-1.4-2.6-.5-3.8.9-1.2 2.6-1.4 3.8-.5 1.1.8 2.1 1.6 3.2 2.4 1.2.9 1.4 2.6.6 3.8-.6.8-1.4 1.1-2.2 1.1zm-11.7-9.3c-.6 0-1.3-.2-1.8-.7-1-.9-2.1-1.8-3.1-2.7-1.1-1-1.2-2.7-.2-3.8 1-1.1 2.7-1.2 3.8-.2 1 .9 2 1.8 3 2.6 1.1 1 1.3 2.7.3 3.8-.5.7-1.2 1-2 1zM110.2 437c-.7 0-1.4-.3-1.9-.8-1-1-2-1.9-2.9-2.9-1.1-1.1-1-2.8 0-3.8 1.1-1.1 2.8-1 3.8 0 .9 1 1.9 1.9 2.9 2.8 1.1 1 1.1 2.8 0 3.8-.4.6-1.2.9-1.9.9zm-10.3-10.8c-.7 0-1.5-.3-2-.9-.9-1-1.8-2.1-2.7-3.1-1-1.1-.9-2.9.3-3.8 1.1-1 2.9-.9 3.8.3l2.7 3c1 1.1.9 2.8-.2 3.8-.6.5-1.3.7-1.9.7zm168.4 75.5s-.1 0 0 0c-1.4 0-2.8 0-4.1-.1-1.5 0-2.7-1.3-2.7-2.8 0-1.5 1.2-2.7 2.7-2.7h.1c1.3 0 2.7 0 4 .1 1.5 0 2.7 1.2 2.7 2.7 0 1.6-1.2 2.8-2.7 2.8zm10.8-.2c-1.4 0-2.7-1.1-2.7-2.6-.1-1.5 1.1-2.8 2.6-2.8 1.3-.1 2.7-.1 4-.2 1.5-.1 2.8 1.1 2.9 2.6.1 1.5-1.1 2.8-2.6 2.9-1.4.1-2.7.2-4.1.2 0-.1 0-.1-.1-.1zm-25.8-.3h-.2c-1.4-.1-2.7-.2-4.1-.3-1.5-.1-2.6-1.5-2.5-2.9.1-1.5 1.4-2.6 2.9-2.5 1.3.1 2.7.2 4 .3 1.5.1 2.6 1.4 2.5 2.9 0 1.4-1.2 2.5-2.6 2.5zm40.7-.8c-1.4 0-2.6-1-2.7-2.4-.2-1.5.9-2.8 2.4-3 1.3-.1 2.7-.3 4-.5 1.5-.2 2.9.9 3 2.4.2 1.5-.9 2.9-2.4 3-1.4.2-2.7.3-4.1.5h-.2zm-55.6-.8h-.4c-1.4-.2-2.7-.4-4.1-.6-1.5-.2-2.5-1.6-2.3-3.1.2-1.5 1.6-2.5 3.1-2.3 1.3.2 2.7.4 4 .6 1.5.2 2.5 1.6 2.3 3.1-.1 1.4-1.2 2.3-2.6 2.3zm70.4-1.3c-1.3 0-2.4-.9-2.7-2.2-.3-1.5.7-2.9 2.2-3.1 1.3-.2 2.6-.5 4-.7 1.5-.3 2.9.7 3.2 2.2s-.7 2.9-2.2 3.2c-1.3.3-2.7.5-4.1.7 0-.1-.2-.1-.4-.1zm14.7-3c-1.2 0-2.3-.8-2.6-2.1-.4-1.5.5-2.9 2-3.3 1.3-.3 2.6-.6 3.9-1 1.5-.4 2.9.5 3.3 1.9.4 1.5-.5 2.9-1.9 3.3-1.3.3-2.7.7-4 1-.3.1-.5.2-.7.2zm14.4-4.1c-1.2 0-2.2-.7-2.6-1.9-.5-1.4.3-3 1.8-3.4 1.3-.4 2.6-.8 3.8-1.2 1.4-.5 3 .3 3.4 1.7.5 1.4-.3 3-1.7 3.4-1.3.4-2.6.9-3.9 1.3-.3.1-.5.1-.8.1zm86.1-49.9c-.7 0-1.5-.3-2-.9-1-1.1-.9-2.8.2-3.8s2.1-1.9 3-2.8c1.1-1 2.8-1 3.8.1s1 2.8-.1 3.8c-.9.9-1.9 1.8-3 2.8-.6.5-1.3.8-1.9.8zm10.7-10.5c-.7 0-1.3-.2-1.8-.7-1.1-1-1.2-2.7-.1-3.8.8-.9 1.7-1.9 2.7-3 1-1.1 2.7-1.2 3.8-.2 1.1 1 1.2 2.7.2 3.8-1 1.1-1.9 2.1-2.8 3.1-.6.5-1.3.8-2 .8zm-4.1-318.1c-.7 0-1.4-.3-1.9-.8-1-1-1.9-1.9-2.9-2.8-1.1-1-1.1-2.8-.1-3.8 1-1.1 2.8-1.1 3.8-.1s2 1.9 2.9 2.9c1.1 1.1 1.1 2.8 0 3.8-.4.5-1.1.8-1.8.8zm-10.9-10.3c-.6 0-1.3-.2-1.8-.7-1-.9-2-1.8-3.1-2.6-1.1-1-1.3-2.7-.3-3.8 1-1.1 2.7-1.3 3.8-.3 1 .9 2.1 1.8 3.1 2.7 1.1 1 1.2 2.7.3 3.8-.5.6-1.3.9-2 .9zm-11.6-9.5c-.6 0-1.2-.2-1.7-.6-1.1-.8-2.1-1.6-3.2-2.4-1.2-.9-1.5-2.6-.6-3.8.9-1.2 2.6-1.5 3.8-.6 1.1.8 2.2 1.6 3.3 2.5 1.2.9 1.4 2.6.5 3.8-.5.8-1.3 1.1-2.1 1.1zm-12.2-8.7c-.5 0-1-.1-1.5-.5-1.1-.7-2.2-1.5-3.4-2.2-1.3-.8-1.6-2.5-.8-3.8.8-1.3 2.5-1.6 3.8-.8 1.2.7 2.3 1.5 3.5 2.3 1.2.8 1.6 2.5.7 3.8-.5.8-1.4 1.2-2.3 1.2zm-12.7-7.9c-.5 0-.9-.1-1.4-.4-1.2-.7-2.3-1.3-3.5-2-1.3-.7-1.8-2.4-1.1-3.7.7-1.3 2.4-1.8 3.7-1.1 1.2.7 2.4 1.3 3.6 2 1.3.8 1.7 2.4 1 3.7-.4 1-1.3 1.5-2.3 1.5zm-13.1-7c-.4 0-.8-.1-1.2-.3l-3.6-1.8c-1.4-.6-1.9-2.3-1.3-3.6.6-1.4 2.3-1.9 3.6-1.3 1.2.6 2.5 1.2 3.7 1.8 1.3.7 1.9 2.3 1.2 3.6-.5 1-1.4 1.6-2.4 1.6zm-13.7-6.2c-.3 0-.7-.1-1-.2-1.2-.5-2.5-1-3.7-1.5-1.4-.5-2.1-2.1-1.5-3.5.5-1.4 2.1-2.1 3.5-1.5 1.3.5 2.6 1 3.8 1.5 1.4.6 2 2.2 1.5 3.6-.5.9-1.5 1.6-2.6 1.6zm-14-5.3c-.3 0-.6 0-.9-.1-1.3-.4-2.6-.9-3.8-1.3-1.4-.5-2.2-2-1.8-3.4.5-1.4 2-2.2 3.4-1.8 1.3.4 2.6.8 3.9 1.3 1.4.5 2.2 2 1.7 3.4-.3 1.2-1.3 1.9-2.5 1.9zm-14.3-4.3c-.2 0-.5 0-.7-.1-1.3-.3-2.6-.7-3.9-1-1.5-.4-2.3-1.8-2-3.3.4-1.5 1.8-2.3 3.3-2 1.3.3 2.7.7 4 1 1.5.4 2.3 1.9 1.9 3.3-.3 1.3-1.4 2.1-2.6 2.1zm-14.6-3.4c-.2 0-.4 0-.5-.1-1.3-.3-2.6-.5-4-.7-1.5-.3-2.5-1.7-2.2-3.2.3-1.5 1.7-2.5 3.2-2.2 1.4.2 2.7.5 4.1.8 1.5.3 2.4 1.7 2.1 3.2-.3 1.3-1.4 2.2-2.7 2.2zm-14.8-2.4h-.4c-1.3-.2-2.7-.3-4-.5-1.5-.2-2.6-1.5-2.4-3 .2-1.5 1.5-2.6 3-2.4 1.4.2 2.7.3 4.1.5 1.5.2 2.5 1.6 2.3 3 0 1.4-1.2 2.4-2.6 2.4zM225.8 50c-1.3 0-2.4-.9-2.7-2.2-.3-1.5.7-2.9 2.2-3.2 1.3-.3 2.7-.5 4.1-.7 1.5-.3 2.9.7 3.1 2.2.3 1.5-.7 2.9-2.2 3.1-1.3.2-2.6.5-4 .7-.1.1-.3.1-.5.1zm14.8-2.4c-1.4 0-2.5-1-2.7-2.4-.2-1.5.9-2.9 2.4-3 .8-.1 1.7-.2 2.5-.3 1.5-.2 2.8.9 3 2.4.2 1.5-.9 2.8-2.4 3l-2.4.3h-.4zM48.4 217.7c-.2 0-.4 0-.7-.1-1.5-.4-2.3-1.8-2-3.3.3-1.3.7-2.7 1.1-4 .4-1.4 1.9-2.3 3.3-1.9 1.4.4 2.3 1.9 1.9 3.3-.4 1.3-.7 2.6-1 3.9-.3 1.3-1.4 2.1-2.6 2.1zm4.1-14.4c-.3 0-.6 0-.8-.1-1.4-.5-2.2-2-1.7-3.4.4-1.3.9-2.6 1.3-3.9.5-1.4 2-2.2 3.5-1.7 1.4.5 2.2 2 1.7 3.5-.4 1.3-.9 2.5-1.3 3.8-.5 1.1-1.5 1.8-2.7 1.8zm5.1-14.1c-.3 0-.7-.1-1-.2-1.4-.6-2.1-2.1-1.5-3.5.5-1.3 1-2.6 1.6-3.8.6-1.4 2.2-2 3.6-1.5 1.4.6 2 2.2 1.5 3.6-.5 1.2-1 2.5-1.5 3.7-.6 1.1-1.6 1.7-2.7 1.7zm6-13.7c-.4 0-.8-.1-1.2-.3-1.4-.6-1.9-2.3-1.3-3.6.6-1.2 1.2-2.5 1.8-3.7.7-1.3 2.3-1.9 3.7-1.2 1.3.7 1.9 2.3 1.2 3.7L66 174c-.4 1-1.4 1.5-2.4 1.5zm6.9-13.2c-.5 0-.9-.1-1.3-.3-1.3-.7-1.8-2.4-1-3.7l2.1-3.6c.8-1.3 2.4-1.7 3.7-1 1.3.8 1.7 2.4 1 3.7-.7 1.2-1.3 2.3-2 3.5-.6.9-1.5 1.4-2.5 1.4zm7.8-12.8c-.5 0-1-.1-1.5-.4-1.3-.8-1.6-2.5-.8-3.8.8-1.2 1.5-2.3 2.3-3.4.8-1.2 2.5-1.6 3.8-.7 1.2.8 1.6 2.5.7 3.8-.8 1.1-1.5 2.2-2.2 3.4-.6.6-1.5 1.1-2.3 1.1zm8.5-12.3c-.6 0-1.1-.2-1.6-.5-1.2-.9-1.4-2.6-.5-3.8.8-1.1 1.7-2.2 2.5-3.3.9-1.2 2.6-1.4 3.8-.5 1.2.9 1.4 2.6.5 3.8-.8 1.1-1.6 2.1-2.4 3.2-.6.7-1.4 1.1-2.3 1.1zm9.4-11.7c-.6 0-1.3-.2-1.8-.7-1.1-1-1.3-2.7-.3-3.8.9-1 1.8-2.1 2.7-3.1 1-1.1 2.7-1.2 3.8-.2 1.1 1 1.2 2.7.2 3.8l-2.7 3c-.4.7-1.1 1-1.9 1zm10.1-11c-.7 0-1.4-.3-1.9-.8-1.1-1-1.1-2.8 0-3.8 1-1 1.9-2 2.9-2.9 1.1-1.1 2.8-1 3.8 0 1.1 1.1 1 2.8 0 3.8-1 .9-1.9 1.9-2.8 2.9-.6.5-1.3.8-2 .8zm10.8-10.3c-.7 0-1.5-.3-2-.9-1-1.1-.9-2.8.2-3.8 1-.9 2.1-1.8 3.1-2.7 1.1-1 2.9-.9 3.8.3s.9 2.9-.3 3.8l-3 2.7c-.5.3-1.2.6-1.8.6zm11.4-9.7c-.8 0-1.6-.4-2.1-1-.9-1.2-.7-2.9.5-3.8 1.1-.9 2.2-1.7 3.3-2.5 1.2-.9 2.9-.7 3.8.5.9 1.2.7 2.9-.5 3.8-1.1.8-2.1 1.6-3.2 2.5-.6.3-1.2.5-1.8.5zm12.1-8.8c-.9 0-1.7-.4-2.2-1.2-.8-1.2-.5-2.9.7-3.8 1.1-.8 2.3-1.5 3.4-2.3 1.3-.8 2.9-.5 3.8.8.8 1.3.5 2.9-.8 3.8-1.1.7-2.2 1.5-3.3 2.2-.6.3-1.1.5-1.6.5zm12.6-8.1c-.9 0-1.8-.5-2.3-1.3-.8-1.3-.3-3 1-3.7l3.6-2.1c1.3-.7 3-.3 3.7 1 .7 1.3.3 3-1 3.7-1.2.7-2.3 1.3-3.5 2-.6.3-1 .4-1.5.4zm13.1-7.2c-1 0-1.9-.5-2.4-1.5-.7-1.3-.1-3 1.2-3.7.6-.3 1.1-.6 1.7-.8 1.3-.7 3-.1 3.6 1.2.7 1.3.1 3-1.2 3.6-.5.3-1.1.5-1.6.8-.5.3-.9.4-1.3.4z"/>
  <path fill="#C2CED4" d="M207.4 170.4c-3 0-5.4-2.4-5.4-5.4v-46.7c0-3 2.4-5.4 5.4-5.4 3 0 5.4 2.4 5.4 5.4V165c.1 2.9-2.4 5.4-5.4 5.4zm164.8-56.3c-3 0-5.4-2.4-5.4-5.4v-5c0-14.4-11.7-26-26-26h-93.3c-3 0-5.4-2.4-5.4-5.4 0-3 2.4-5.4 5.4-5.4h93.3c20.4 0 36.9 16.6 36.9 36.9v5c0 2.9-2.5 5.3-5.5 5.3zm332 370.3c-3 0-5.4-2.4-5.4-5.4v-21.3h-32.9c-3 0-5.4-2.4-5.4-5.4 0-3 2.4-5.4 5.4-5.4h38.3c3 0 5.4 2.4 5.4 5.4v26.8c0 2.8-2.4 5.3-5.4 5.3zm-596.1-6.5c-1.4 0-2.7-.5-3.9-1.4-2.9-2.3-5.7-4.8-8.5-7.2-2.5-2.2-2.8-6.1-.5-8.6 2.2-2.5 6.1-2.8 8.6-.5 2.6 2.3 5.4 4.7 8.1 6.9 2.6 2.1 3 6 .9 8.6-1.2 1.4-3 2.2-4.7 2.2zm-27.7-26.1c-1.7 0-3.3-.7-4.5-2-2.5-2.7-5-5.5-7.3-8.4-2.2-2.6-1.9-6.4.7-8.6 2.6-2.2 6.4-1.9 8.6.7 2.3 2.7 4.6 5.4 7 8 2.3 2.5 2.1 6.4-.4 8.6-1.1 1.1-2.6 1.7-4.1 1.7zm189 85h-.1c-3.7-.1-7.4-.2-11.1-.4-3.4-.2-6-3.1-5.8-6.5.2-3.4 3.1-6 6.5-5.8 3.5.2 7.1.3 10.6.4 3.4.1 6.1 2.8 6 6.2 0 3.5-2.8 6.1-6.1 6.1zm27.2-.9c-3.1 0-5.8-2.4-6.1-5.6-.3-3.4 2.2-6.3 5.6-6.6 3.5-.3 7.1-.7 10.6-1.1 3.3-.4 6.4 1.9 6.8 5.3.4 3.4-1.9 6.4-5.3 6.8-3.6.5-7.4.9-11.1 1.2h-.5zm-65.1-2.4c-.3 0-.7 0-1-.1-3.6-.6-7.3-1.3-10.9-2-3.3-.7-5.4-3.9-4.8-7.2.7-3.3 3.9-5.4 7.2-4.8 3.5.7 7 1.4 10.5 1.9 3.3.5 5.6 3.7 5.1 7-.5 3-3.1 5.2-6.1 5.2zm102.6-3.6c-2.8 0-5.3-1.9-6-4.7-.8-3.3 1.3-6.6 4.6-7.4 3.5-.8 6.9-1.7 10.3-2.7 3.3-.9 6.6 1 7.5 4.2.9 3.3-1 6.6-4.2 7.5-3.5 1-7.2 1.9-10.8 2.8-.4.2-.9.3-1.4.3zm83.5-35.9c-2 0-4-1-5.1-2.8-1.8-2.8-1-6.6 1.8-8.5 3.1-2 6.1-4 8.9-5.9 2.8-1.9 6.6-1.2 8.5 1.5s1.2 6.6-1.5 8.5c-2.9 2-6 4.1-9.2 6.2-1.1.7-2.2 1-3.4 1zm30.6-22.7c-1.7 0-3.4-.7-4.6-2.1-2.2-2.5-1.9-6.4.6-8.6 2.7-2.3 5.3-4.7 7.8-7.1 2.4-2.3 6.3-2.3 8.7.2 2.3 2.4 2.3 6.3-.2 8.7-2.7 2.6-5.4 5.1-8.3 7.6-1.2.8-2.6 1.3-4 1.3zm26.3-27.4c-1.3 0-2.7-.4-3.8-1.3-2.6-2.1-3.1-6-.9-8.6 2.2-2.7 4.3-5.5 6.5-8.4 2-2.7 5.8-3.3 8.6-1.3 2.7 2 3.3 5.8 1.3 8.6-2.2 3-4.5 6-6.8 8.8-1.4 1.4-3.1 2.2-4.9 2.2zm1.2-336.7c-1.8 0-3.5-.8-4.7-2.2-2.3-2.7-4.6-5.4-7-8-2.3-2.5-2.1-6.4.4-8.6 2.5-2.3 6.4-2.1 8.6.4 2.5 2.7 4.9 5.6 7.3 8.4 2.2 2.6 1.8 6.5-.8 8.6-1 1-2.4 1.4-3.8 1.4zm-26.3-27.4c-1.5 0-2.9-.5-4.1-1.6-2.6-2.4-5.3-4.7-8-7-2.6-2.2-3-6-.8-8.6 2.2-2.6 6-3 8.6-.8 2.8 2.4 5.7 4.8 8.4 7.3 2.5 2.3 2.7 6.1.4 8.6-1.2 1.4-2.9 2.1-4.5 2.1zM122.6 60.3c-1.9 0-3.8-.9-5-2.6-2-2.8-1.3-6.6 1.5-8.5 3-2.1 6.1-4.2 9.2-6.2 2.8-1.8 6.6-1 8.5 1.8 1.8 2.8 1 6.6-1.8 8.5-3 1.9-5.9 3.9-8.8 6-1.2.6-2.4 1-3.6 1zm296.7-3.9c-1.2 0-2.4-.3-3.4-1-2.9-2-5.9-3.9-9-5.7-2.9-1.8-3.8-5.5-2-8.4 1.8-2.9 5.5-3.8 8.4-2 3.2 1.9 6.3 3.9 9.4 6 2.8 1.9 3.6 5.7 1.7 8.5-1.1 1.7-3.1 2.6-5.1 2.6zM155.2 40.7c-2.2 0-4.4-1.2-5.5-3.3-1.5-3-.3-6.7 2.7-8.2 3.3-1.7 6.7-3.3 10-4.8 3.1-1.4 6.7-.1 8.1 3 1.4 3.1.1 6.7-3 8.1-3.2 1.5-6.4 3-9.6 4.6-.9.3-1.8.6-2.7.6zm231.1-3.1c-.9 0-1.8-.2-2.6-.6-3.2-1.5-6.4-3-9.7-4.4-3.1-1.3-4.6-4.9-3.2-8 1.3-3.1 4.9-4.6 8-3.2 3.4 1.4 6.8 3 10.2 4.6 3.1 1.5 4.4 5.1 2.9 8.2-1.2 2.1-3.4 3.4-5.6 3.4zM190.2 25.9c-2.6 0-4.9-1.6-5.8-4.2-1.1-3.2.6-6.7 3.9-7.8 3.5-1.2 7.1-2.3 10.6-3.3 3.2-.9 6.6.9 7.6 4.2.9 3.2-.9 6.6-4.2 7.6-3.4 1-6.8 2-10.1 3.2-.7.2-1.3.3-2 .3zm160.6-2.1c-.6 0-1.2-.1-1.8-.3-3.4-1-6.8-2-10.2-2.9-3.3-.9-5.2-4.2-4.4-7.5.9-3.3 4.2-5.2 7.5-4.4 3.6.9 7.2 2 10.7 3 3.2 1 5 4.4 4.1 7.6-.9 2.8-3.3 4.5-5.9 4.5zm-123.7-7.3c-2.9 0-5.5-2.1-6-5-.6-3.3 1.6-6.5 4.9-7.1 3.6-.7 7.3-1.2 11-1.7 3.4-.5 6.4 1.9 6.9 5.2.5 3.3-1.9 6.4-5.2 6.9-3.5.5-7 1-10.5 1.7h-1.1zm86.6-1.1c-.3 0-.6 0-.9-.1-3.5-.5-7-1-10.5-1.4-3.4-.4-5.8-3.4-5.4-6.8.4-3.4 3.4-5.8 6.8-5.4 3.7.4 7.4.9 11 1.5 3.3.5 5.6 3.6 5.1 7-.5 3-3.1 5.2-6.1 5.2zm-48.8-2.9c-3.3 0-6-2.6-6.1-5.9-.1-3.4 2.5-6.2 5.9-6.3 3.7-.1 7.4-.2 11.1-.1 3.4 0 6.1 2.8 6.1 6.2 0 3.4-2.8 6.1-6.1 6.1-3.5 0-7.1 0-10.6.1-.2-.1-.2-.1-.3-.1zM14 239c-.3 0-.6 0-.8-.1-3.3-.5-5.7-3.5-5.2-6.9.5-3.7 1.1-7.4 1.7-11 .6-3.3 3.8-5.5 7.1-4.9 3.3.6 5.5 3.8 4.9 7.1-.6 3.5-1.2 7-1.6 10.5-.5 3-3.1 5.3-6.1 5.3zm7.8-37.3c-.6 0-1.1-.1-1.7-.2-3.2-.9-5.1-4.3-4.2-7.6 1-3.5 2.1-7.1 3.3-10.6 1.1-3.2 4.5-4.9 7.7-3.9 3.2 1.1 4.9 4.5 3.9 7.7-1.1 3.3-2.2 6.8-3.2 10.1-.7 2.8-3.1 4.5-5.8 4.5zM35 166.1c-.8 0-1.7-.2-2.5-.6-3.1-1.4-4.4-5-3-8.1 1.5-3.4 3.2-6.7 4.8-10 1.5-3 5.2-4.2 8.2-2.7 3 1.5 4.2 5.2 2.7 8.2-1.6 3.1-3.1 6.4-4.6 9.6-1.1 2.2-3.3 3.6-5.6 3.6zm18.2-33.4c-1.1 0-2.3-.3-3.3-1-2.8-1.8-3.7-5.6-1.8-8.5 2-3.1 4.1-6.2 6.2-9.2 1.9-2.8 5.8-3.4 8.5-1.5 2.8 1.9 3.4 5.8 1.5 8.5-2 2.9-4 5.8-5.9 8.8-1.2 1.9-3.2 2.9-5.2 2.9zm22.9-30.4c-1.4 0-2.9-.5-4-1.5-2.5-2.2-2.8-6.1-.6-8.6 2.4-2.8 5-5.6 7.5-8.2 2.3-2.5 6.2-2.6 8.7-.2 2.5 2.3 2.6 6.2.2 8.7-2.4 2.6-4.8 5.2-7.1 7.9-1.3 1.2-3 1.9-4.7 1.9zm541-84.5c-2.8 0-5.4-2-6-4.9-.7-3.3 1.4-6.5 4.8-7.2 3.6-.7 7.3-1.4 10.9-2 3.3-.5 6.5 1.7 7 5s-1.7 6.5-5 7c-3.5.6-7 1.2-10.4 1.9-.4.2-.9.2-1.3.2zm86.6-3.4h-.8c-3.5-.4-7-.8-10.6-1.1-3.4-.3-5.9-3.2-5.6-6.6s3.2-5.9 6.6-5.6c3.7.3 7.4.7 11.1 1.2 3.4.4 5.7 3.5 5.3 6.8-.3 3-2.9 5.3-6 5.3zm-48.9-1.6c-3.2 0-5.9-2.5-6.1-5.8-.2-3.4 2.4-6.3 5.7-6.5 3.7-.2 7.4-.4 11.1-.4 3.3-.1 6.2 2.6 6.2 6s-2.6 6.2-6 6.2c-3.5.1-7.1.2-10.6.4 0 .1-.1.1-.3.1zM486.9 87.5c-1.6 0-3.2-.6-4.4-1.8-2.4-2.4-2.3-6.3.1-8.7 2.6-2.6 5.4-5.2 8.1-7.6 2.5-2.3 6.4-2.1 8.6.4 2.3 2.5 2.1 6.4-.4 8.6-2.6 2.4-5.2 4.8-7.7 7.3-1.2 1.2-2.7 1.8-4.3 1.8zm29-24.6c-1.9 0-3.7-.9-4.9-2.5-2-2.7-1.4-6.6 1.3-8.6 3-2.2 6-4.3 9.1-6.4 2.8-1.9 6.6-1.1 8.5 1.7 1.9 2.8 1.1 6.6-1.7 8.5-2.9 2-5.9 4-8.7 6.1-1.1.8-2.3 1.2-3.6 1.2zm32.2-20.2c-2.2 0-4.3-1.2-5.4-3.3-1.6-3-.4-6.7 2.5-8.3 3.3-1.7 6.6-3.4 9.9-5 3-1.5 6.7-.2 8.2 2.9 1.5 3.1.2 6.7-2.9 8.2-3.2 1.5-6.4 3.1-9.5 4.8-.8.5-1.8.7-2.8.7zm-20.4 451.8c-1.1 0-2.3-.3-3.3-1-3.1-2-6.2-4.1-9.2-6.3-2.8-2-3.4-5.8-1.4-8.5 2-2.8 5.8-3.4 8.5-1.4 2.9 2 5.8 4.1 8.8 6 2.8 1.8 3.6 5.6 1.8 8.5-1.2 1.7-3.2 2.7-5.2 2.7zm-30.3-23c-1.4 0-2.9-.5-4-1.5-2.8-2.4-5.5-5-8.2-7.5-2.4-2.3-2.5-6.2-.2-8.7 2.3-2.4 6.2-2.5 8.7-.2 2.5 2.4 5.2 4.9 7.8 7.2 2.5 2.2 2.8 6.1.5 8.6a6.03 6.03 0 0 1-4.6 2.1zm173.3 65.4c-3.7 0-7.4-.1-11.1-.2-3.4-.1-6-3-5.9-6.4.1-3.4 3-6 6.4-5.9 3.5.1 7.1.2 10.6.2 3.4 0 6.1 2.7 6.1 6.1s-2.7 6.2-6.1 6.2zm-38-2.8c-.3 0-.6 0-.9-.1-1.5-.2-2.9-.4-4.4-.7-3.3-.5-5.6-3.7-5.1-7s3.7-5.6 7-5.1l4.2.6c3.3.5 5.7 3.6 5.2 6.9-.3 3.2-3 5.4-6 5.4zm104.9-5.1c-2.7 0-5.1-1.7-5.9-4.4-.9-3.2.9-6.6 4.2-7.6 1-.3 2.1-.6 3.1-.9 3.2-1 6.7.8 7.6 4 1 3.2-.8 6.7-4 7.6-1.1.3-2.2.7-3.3 1-.5.2-1.1.3-1.7.3zm28.8-10.3c-2.4 0-4.7-1.4-5.6-3.7-1.3-3.1.2-6.7 3.3-8 3.2-1.4 6.5-2.8 9.8-4.3 3.1-1.4 6.7-.1 8.1 3 1.4 3.1.1 6.7-3 8.1-3.4 1.6-6.8 3.1-10.1 4.5-.9.2-1.8.4-2.5.4zm34.2-16.8c-2.1 0-4.2-1.1-5.3-3.1-1.7-2.9-.6-6.7 2.3-8.3 3.1-1.8 6.2-3.6 9.2-5.4 2.9-1.8 6.7-.8 8.4 2 1.8 2.9.8 6.7-2 8.4-3.1 1.9-6.3 3.8-9.6 5.6-1 .5-2 .8-3 .8zm31.8-20.8c-1.8 0-3.6-.8-4.9-2.4-2.1-2.7-1.6-6.5 1.1-8.6 2.9-2.2 5.6-4.5 8.1-6.6 2.5-2.2 6.4-2 8.6.6 2.2 2.5 2 6.4-.6 8.6-2.7 2.3-5.6 4.8-8.7 7.1-1 .9-2.3 1.3-3.6 1.3zm49.3-50.5c-1.2 0-2.5-.4-3.6-1.2-2.7-2-3.4-5.8-1.4-8.5 2.1-2.9 4.1-5.8 6-8.7 1.9-2.8 5.6-3.6 8.5-1.8 2.8 1.9 3.6 5.6 1.8 8.5-2 3.1-4.2 6.2-6.3 9.2-1.2 1.6-3.1 2.5-5 2.5zm19.8-32.5c-.9 0-1.9-.2-2.8-.7-3-1.5-4.2-5.2-2.7-8.2 1.6-3.1 3.1-6.3 4.6-9.6 1.4-3.1 5-4.4 8.1-3 3.1 1.4 4.4 5 3 8.1-1.5 3.4-3.2 6.8-4.8 10-1.1 2.2-3.2 3.4-5.4 3.4zm14.7-35.1c-.7 0-1.3-.1-2-.3-3.2-1.1-4.9-4.6-3.8-7.8 1.1-3.3 2.2-6.8 3.2-10.1 1-3.2 4.4-5.1 7.6-4.1 3.2 1 5.1 4.4 4.1 7.6-1 3.5-2.2 7.1-3.4 10.6-.8 2.5-3.2 4.1-5.7 4.1zm9.8-36.8c-.4 0-.8 0-1.2-.1-3.3-.7-5.5-3.9-4.8-7.2.7-3.5 1.3-7 1.8-10.5.5-3.3 3.7-5.6 7-5.1s5.6 3.7 5.1 7c-.6 3.7-1.2 7.3-1.9 10.9-.6 3-3.2 5-6 5zm6.4-68c-3.2 0-5.9-2.5-6.1-5.7-.2-3.5-.5-7.1-.9-10.6-.3-3.4 2.1-6.4 5.5-6.7 3.4-.3 6.4 2.1 6.7 5.5.4 3.7.7 7.4.9 11.1.2 3.4-2.4 6.3-5.7 6.5-.1-.1-.2-.1-.4-.1zm-5.1-37.7c-2.8 0-5.4-2-6-4.9-.7-3.5-1.5-7-2.4-10.3-.8-3.3 1.1-6.6 4.4-7.4 3.3-.8 6.6 1.1 7.4 4.4.9 3.6 1.7 7.2 2.5 10.8.7 3.3-1.4 6.6-4.7 7.2-.3.1-.7.2-1.2.2zm-10.5-36.6c-2.5 0-4.8-1.5-5.7-4-1.2-3.3-2.5-6.6-3.9-9.9-1.3-3.1.2-6.7 3.3-8 3.1-1.3 6.7.2 8 3.3 1.4 3.4 2.8 6.9 4.1 10.4 1.2 3.2-.5 6.7-3.6 7.9-.7.2-1.5.3-2.2.3zm-15.7-34.6c-2.2 0-4.3-1.2-5.4-3.2-1.7-3.1-3.5-6.2-5.3-9.2-1.7-2.9-.8-6.7 2.1-8.4 2.9-1.7 6.7-.8 8.4 2.1 1.9 3.2 3.8 6.4 5.5 9.7 1.6 3 .5 6.7-2.4 8.3-.9.4-1.9.7-2.9.7z"/>
  <circle fill="#FF8BA9" cx="386" cy="516.6" r="22.9"/>
  <path fill="#ACC6DE" d="M471.4 514.1h-50.3c-3.1 0-5.6-2.5-5.6-5.6 0-3.1 2.5-5.6 5.6-5.6h50.3c3.1 0 5.6 2.5 5.6 5.6 0 3.1-2.5 5.6-5.6 5.6zm-30.4 18h-19.9c-3.1 0-5.6-2.5-5.6-5.6 0-3.1 2.5-5.6 5.6-5.6H441c3.1 0 5.6 2.5 5.6 5.6 0 3.1-2.5 5.6-5.6 5.6z"/>
  <circle fill="#FFF" cx="386" cy="509.4" r="6.5"/>
  <path fill="#FFF" d="M386 513.4c-6.8 0-12.4 5.5-12.4 12.3v.4c3.4 2.6 7.7 4.1 12.3 4.1s8.9-1.5 12.3-4.1v-.4c.2-6.8-5.3-12.3-12.2-12.3z"/>
  <circle fill="#F5D56F" cx="600.5" cy="121.8" r="42.1"/>
  <circle fill="#E69942" cx="600.5" cy="121.8" r="31.3"/>
  <circle fill="#F5D56F" cx="600.3" cy="121.9" r="28.5"/>
  <path fill="#F1AC4B" d="M590.4 90.3c-1 .3-2.1-.2-2.4-1.2l-1-3.2c-.3-1 .2-2.1 1.2-2.4 1-.3 2.1.2 2.4 1.2l1 3.2c.3 1-.2 2-1.2 2.4zm20.1 0c-1-.3-1.6-1.4-1.3-2.4l1-3.2c.3-1 1.4-1.6 2.4-1.3 1 .3 1.6 1.4 1.3 2.4l-1 3.2c-.3 1-1.4 1.6-2.4 1.3zm16.4 11.6c-.6-.8-.5-2.1.4-2.7l2.7-2c.8-.6 2.1-.5 2.7.4.6.8.5 2.1-.4 2.7l-2.7 2c-.8.6-2 .4-2.7-.4zm6.7 19c0-1.1.8-2 1.9-2l3.4-.1c1.1 0 2 .8 2 1.9 0 1.1-.8 1.9-1.9 2l-3.4.1c-1.1 0-2-.9-2-1.9zm-5.6 19.3c.6-.9 1.8-1.1 2.7-.5l2.8 1.9c.9.6 1.1 1.8.5 2.7-.6.9-1.8 1.1-2.7.5l-2.8-1.9c-.8-.6-1.1-1.8-.5-2.7zm-15.7 12.6c1-.4 2.1.1 2.5 1.1l1.2 3.2c.4 1-.1 2.1-1.1 2.5-1 .4-2.1-.1-2.5-1.1l-1.2-3.2c-.4-1 .1-2.1 1.1-2.5zm-20.1 1.1c1 .3 1.7 1.3 1.4 2.3l-.8 3.3c-.3 1-1.3 1.7-2.3 1.4-1-.3-1.7-1.3-1.4-2.3l.8-3.3c.2-1 1.3-1.6 2.3-1.4zm-17-10.7c.7.8.6 2-.2 2.7l-2.6 2.2c-.8.7-2 .6-2.7-.2-.7-.8-.6-2 .2-2.7l2.6-2.2c.8-.7 2-.6 2.7.2zm-7.8-18.6c.1 1.1-.7 2-1.8 2.1l-3.4.3c-1.1.1-2-.7-2.1-1.8-.1-1.1.7-2 1.8-2.1l3.4-.3c1.1 0 2.1.8 2.1 1.8zm4.5-19.6c-.5.9-1.7 1.2-2.6.7l-2.9-1.7c-.9-.5-1.2-1.7-.7-2.6.5-.9 1.7-1.2 2.6-.7l2.9 1.7c1 .5 1.3 1.7.7 2.6z"/>
  <path fill="#E38C2B" d="M596.8 141.8c-1.8 0-3.5-1.3-4-3.1-.5-2.2.8-4.4 3-4.9 7.1-1.7 12.1-4.6 14-8.1 1.2-2.2 1.3-4.7.3-7.7-1-2.9-3.1-8.9-21.1-2.7-2.1.7-4.5-.4-5.2-2.5-.7-2.1.4-4.5 2.5-5.2 6.4-2.2 25.7-8.8 31.4 7.8 1.8 5.1 1.5 10-.8 14.2-3.1 5.7-9.8 9.9-19.3 12.2h-.8z"/>
  <path fill="#E38C2B" d="M599.6 132.3c-1.7 0-3.3-1.1-3.9-2.8l-5.9-17.2c-.7-2.1.4-4.5 2.5-5.2 2.1-.7 4.5.4 5.2 2.5l5.9 17.2c.7 2.1-.4 4.5-2.5 5.2-.4.3-.9.3-1.3.3z"/>
  <path fill="#F4D05D" d="M225.7 181.8c-16.3 0-29.5 13.2-29.6 29.5v13.1c0 6.2 5 11.2 11.2 11.2h8.6c8.4 0 15.2 6.8 15.2 15.2 0 8.4-6.8 15.2-15.2 15.2h-19.8c-7.7 0-13.9 6.2-13.9 13.9s6.2 14 13.9 14h36.3c4.9 0 8.9 4 8.9 8.9s-4 8.9-8.9 8.9H208c-4 0-7.2 3.2-7.2 7.2v.3c0 4 3.2 7.2 7.2 7.2h14.1c4 0 7.2 3.2 7.2 7.2v10.6c0 4.6 3.8 8.4 8.4 8.4h37V181.8h-49z"/>
  <path fill="#F4BD55" d="M263.6 181.8h-12.8v170.6h12.8z"/>
  <path fill="#E18526" d="M240.4 215.3c0-1.6-.5-3-1.4-4-1-1.1-2.5-1.9-4.5-2.6l-4-1.3c-1-.3-1.8-.8-2.4-1.4-.5-.6-.8-1.3-.8-2.1 0-1 .4-1.8 1.3-2.4.9-.6 2-.9 3.4-.9 1 0 1.9.2 2.7.5.8.3 1.3.8 1.6 1.3.1.1.1.3.2.5.4.9.9 1.3 1.6 1.3.5 0 .8-.1 1.1-.4s.4-.7.4-1.2V200c0-.6-.1-1.1-.3-1.3-.2-.3-.6-.4-1-.4-.3 0-.5.1-.7.2-.2.1-.4.3-.6.6-.5-.2-.9-.4-1.4-.6-.7-.2-1.4-.4-2-.5v-3c0-.7-.6-1.3-1.3-1.3s-1.3.6-1.3 1.3v2.8c-2.5.2-4.3 1.3-5.1 2-1.3 1.1-1.9 2.6-1.9 4.4 0 1.4.4 2.6 1.3 3.8.8 1.1 2 1.9 3.4 2.4l3.7 1.2c2 .7 3.3 1.3 3.8 1.9.6.6.9 1.3.9 2.1 0 1-.4 1.8-1.2 2.4-.8.6-1.9.9-3.2.9-1.2 0-2.3-.2-3.4-.6s-1.8-.9-2.1-1.4c-.1-.1-.2-.4-.3-.7-.4-1.1-1-1.6-1.8-1.6-.5 0-.9.2-1.3.5-.3.3-.5.7-.5 1.2v2.9c0 .6.2 1.2.5 1.5.3.4.8.6 1.3.6.3 0 .6-.1.8-.2.2-.2.5-.4.7-.7 1.1.8 2.6 1.3 4.2 1.5v3.3c0 .7.6 1.3 1.3 1.3s1.3-.6 1.3-1.3v-3.3c1.9-.2 3.8-.8 5-1.9 1.3-1.4 2-2.8 2-4.7zm20.7 57.1c0-1.6-.5-3-1.4-4-1-1.1-2.5-1.9-4.5-2.6l-4-1.3c-1-.3-1.8-.8-2.4-1.4-.5-.6-.8-1.3-.8-2.1 0-1 .4-1.8 1.3-2.4.9-.6 2-.9 3.4-.9 1 0 1.9.2 2.7.5.8.3 1.3.8 1.6 1.3.1.1.1.3.2.5.4.9.9 1.3 1.6 1.3.5 0 .8-.1 1.1-.4.3-.3.4-.7.4-1.2v-2.6c0-.6-.1-1.1-.3-1.3-.2-.3-.6-.4-1-.4-.3 0-.5.1-.7.2-.2.1-.4.3-.6.6-.5-.2-.9-.4-1.4-.6-.7-.2-1.4-.4-2-.5v-2.9c0-.7-.6-1.3-1.3-1.3-.7 0-1.3.6-1.3 1.3v2.8c-2.5.2-4.3 1.3-5.1 2-1.3 1.1-1.9 2.6-1.9 4.4 0 1.4.4 2.6 1.3 3.8.8 1.1 2 1.9 3.4 2.4l3.7 1.2c2 .7 3.3 1.3 3.8 1.9.6.6.9 1.3.9 2.1 0 1-.4 1.8-1.2 2.4-.8.6-1.9.9-3.2.9-1.2 0-2.3-.2-3.4-.6-1.1-.4-1.8-.9-2.1-1.4-.1-.1-.2-.4-.3-.7-.4-1.1-1-1.6-1.8-1.6-.5 0-.9.2-1.3.5-.3.3-.5.7-.5 1.2v2.9c0 .6.2 1.2.5 1.5.3.4.8.6 1.3.6.3 0 .6-.1.8-.2.2-.2.5-.4.7-.7 1.1.8 2.6 1.3 4.2 1.5v3.3c0 .7.6 1.3 1.3 1.3.7 0 1.3-.6 1.3-1.3v-3.3c1.9-.2 3.8-.8 5-1.9 1.2-1.5 2-2.9 2-4.8zm-6.7 62.3c0-1.6-.5-3-1.4-4-1-1.1-2.5-1.9-4.5-2.6l-4-1.3c-1-.3-1.8-.8-2.4-1.4-.5-.6-.8-1.3-.8-2.1 0-1 .4-1.8 1.3-2.4.9-.6 2-.9 3.4-.9 1 0 1.9.2 2.7.5.8.3 1.3.8 1.6 1.3.1.1.1.3.2.5.4.9.9 1.3 1.6 1.3.5 0 .8-.1 1.1-.4.3-.3.4-.7.4-1.2v-2.6c0-.6-.1-1.1-.3-1.3-.2-.3-.6-.4-1-.4-.3 0-.5.1-.7.2-.2.1-.4.3-.6.6-.5-.2-.9-.4-1.4-.6-.7-.2-1.4-.4-2-.5v-2.9c0-.7-.6-1.3-1.3-1.3-.7 0-1.3.6-1.3 1.3v2.8c-2.5.2-4.3 1.3-5.1 2-1.3 1.1-1.9 2.6-1.9 4.4 0 1.4.4 2.6 1.3 3.8.8 1.1 2 1.9 3.4 2.4l3.7 1.2c2 .7 3.3 1.3 3.8 1.9s.9 1.3.9 2.1c0 1-.4 1.8-1.2 2.4-.8.6-1.9.9-3.2.9-1.2 0-2.3-.2-3.4-.6-1.1-.4-1.8-.9-2.1-1.4-.1-.1-.2-.4-.3-.7-.4-1.1-1-1.6-1.8-1.6-.5 0-.9.2-1.3.5-.3.3-.5.7-.5 1.2v2.9c0 .6.2 1.2.5 1.5.3.4.8.6 1.3.6.3 0 .6-.1.8-.2.2-.2.5-.4.7-.7 1.1.8 2.6 1.3 4.2 1.5v3.3c0 .7.6 1.3 1.3 1.3.7 0 1.3-.6 1.3-1.3v-3.3c1.9-.2 3.8-.8 5-1.9 1.3-1.5 2-3 2-4.8z"/>
  <circle fill="#F4D05D" cx="734.3" cy="261" r="82.3"/>
  <path fill="#F4BD55" d="M689.7 330.1c6.1 3.9 12.7 7.1 19.7 9.3V182.6c-7 2.2-13.6 5.4-19.7 9.3v138.2z"/>
  <path fill="#E18526" d="M734.3 195.6c-36.1 0-65.4 29.3-65.4 65.4s29.3 65.4 65.4 65.4 65.4-29.3 65.4-65.4-29.3-65.4-65.4-65.4zm0 126.5c-33.7 0-61.1-27.4-61.1-61.1s27.4-61.1 61.1-61.1 61.1 27.4 61.1 61.1-27.4 61.1-61.1 61.1z"/>
  <path fill="#A7C4D5" d="M257.2 397.8H697V141.3c0-9.3-7.5-16.8-16.8-16.8H274c-9.3 0-16.8 7.5-16.8 16.8v256.5z"/>
  <path fill="#3D4C67" d="M268 136.4h418.2v261.3H268z"/>
  <path fill="#4E5C7E" d="M594.5 252.1c0 60.3 38.2 111.7 91.7 131.4v-247h-30.6c-36.9 25.1-61.1 67.5-61.1 115.6z"/>
  <path fill="#4E5C86" d="M405.6 375.1h-6.1c-2.1 0-3.9-1.7-3.9-3.9v-14c0-2.1 1.7-3.9 3.9-3.9h6.1c2.1 0 3.9 1.7 3.9 3.9v14c0 2.2-1.7 3.9-3.9 3.9zm-5.9-4h5.8v-13.7h-5.8v13.7zm25.9 4c-1.1 0-2-.9-2-2v-15.7h-3.3c-1.1 0-2-.9-2-2s.9-2 2-2h7.4v19.8c-.1 1-1 1.9-2.1 1.9z"/>
  <path fill="#4E5C86" d="M433 375.1h-12.8c-1.1 0-2-.9-2-2s.9-2 2-2h8.7v-5.2c0-1.1.9-2 2-2s2 .9 2 2v9.2zm19.4 0h-6.1c-2.1 0-3.9-1.7-3.9-3.9v-14c0-2.1 1.7-3.9 3.9-3.9h6.1c2.1 0 3.9 1.7 3.9 3.9v14c0 2.2-1.8 3.9-3.9 3.9zm-6-4h5.8v-13.7h-5.8v13.7z"/>
  <path fill="#4E5C7E" d="M276.1 144.4v249.7h93.7c6.8 0 12.3-5.5 12.3-12.3V279.7c0-5.8 4.7-10.5 10.5-10.5h26.8c5.8 0 10.5-4.7 10.5-10.5v-21.2c0-5.8-4.7-10.5-10.5-10.5h-70.6c-5.8 0-10.5-4.7-10.5-10.5v-60c0-6.8-5.5-12.3-12.3-12.3l-49.9.2z"/>
  <path fill="#3D4C67" d="M285.4 375.1c-1.1 0-2-.9-2-2v-15.7H280c-1.1 0-2-.9-2-2s.9-2 2-2h7.4v19.8c.1 1-.9 1.9-2 1.9z"/>
  <path fill="#3D4C67" d="M292.8 375.1H280c-1.1 0-2-.9-2-2s.9-2 2-2h8.7v-5.2c0-1.1.9-2 2-2s2 .9 2 2v9.2zm19.4 0h-6.1c-2.1 0-3.9-1.7-3.9-3.9v-14c0-2.1 1.7-3.9 3.9-3.9h6.1c2.1 0 3.9 1.7 3.9 3.9v14c0 2.2-1.7 3.9-3.9 3.9zm-5.9-4h5.8v-13.7h-5.8v13.7zm25.9 4c-1.1 0-2-.9-2-2v-15.7h-3.3c-1.1 0-2-.9-2-2s.9-2 2-2h7.4v19.8c-.1 1-1 1.9-2.1 1.9z"/>
  <path fill="#3D4C67" d="M339.6 375.1h-12.8c-1.1 0-2-.9-2-2s.9-2 2-2h8.7v-5.2c0-1.1.9-2 2-2s2 .9 2 2v9.2zm19.4 0h-6.1c-2.1 0-3.9-1.7-3.9-3.9v-14c0-2.1 1.7-3.9 3.9-3.9h6.1c2.1 0 3.9 1.7 3.9 3.9v14c0 2.2-1.8 3.9-3.9 3.9zm-6-4h5.8v-13.7H353v13.7zm25.9 4c-1.1 0-2-.9-2-2v-15.7h-3.3c-1.1 0-2-.9-2-2s.9-2 2-2h7.4v19.8c-.1 1-1 1.9-2.1 1.9z"/>
  <path fill="#3D4C67" d="M386.3 375.1h-12.8c-1.1 0-2-.9-2-2s.9-2 2-2h8.7v-5.2c0-1.1.9-2 2-2s2 .9 2 2v9.2z"/>
  <path fill="#9DACB8" d="M208.7 397.8h536.8c0 11.9-9.7 21.6-21.6 21.6H230.3c-11.9 0-21.6-9.7-21.6-21.6z"/>
  <path fill="#24A6EA" d="M645.3 260.1c0-28.1 14-52.9 35.3-67.9v-4.8c-23.7 15.5-39.3 42.3-39.3 72.7s15.6 57.2 39.3 72.7V328c-21.3-15-35.3-39.8-35.3-67.9z"/>
  <path fill="#24A6EA" d="M680.7 210.1c-13.2 12.6-21.4 30.3-21.4 50s8.2 37.4 21.4 50v-100z"/>
  <path fill="#4E5C86" d="M463 175.7c-1.1 0-2-.9-2-2V158h-3.3c-1.1 0-2-.9-2-2s.9-2 2-2h7.4v19.8c-.1 1-1 1.9-2.1 1.9z"/>
  <path fill="#4E5C86" d="M470.4 175.7h-12.8c-1.1 0-2-.9-2-2s.9-2 2-2h8.7v-5.2c0-1.1.9-2 2-2s2 .9 2 2v9.2zm19.4 0h-6.1c-2.1 0-3.9-1.7-3.9-3.9v-14c0-2.1 1.7-3.9 3.9-3.9h6.1c2.1 0 3.9 1.7 3.9 3.9v14c0 2.1-1.8 3.9-3.9 3.9zm-6-4.1h5.8v-13.7h-5.8v13.7zm25.9 4.1c-1.1 0-2-.9-2-2V158h-3.3c-1.1 0-2-.9-2-2s.9-2 2-2h7.4v19.8c-.1 1-1 1.9-2.1 1.9z"/>
  <path fill="#4E5C86" d="M517.1 175.7h-12.8c-1.1 0-2-.9-2-2s.9-2 2-2h8.7v-5.2c0-1.1.9-2 2-2s2 .9 2 2v9.2zm19.4 0h-6.1c-2.1 0-3.9-1.7-3.9-3.9v-14c0-2.1 1.7-3.9 3.9-3.9h6.1c2.1 0 3.9 1.7 3.9 3.9v14c0 2.1-1.8 3.9-3.9 3.9zm-6-4.1h5.8v-13.7h-5.8v13.7zm25.9 4.1c-1.1 0-2-.9-2-2V158H551c-1.1 0-2-.9-2-2s.9-2 2-2h7.4v19.8c.1 1-.8 1.9-2 1.9z"/>
  <path fill="#4E5C86" d="M563.8 175.7H551c-1.1 0-2-.9-2-2s.9-2 2-2h8.7v-5.2c0-1.1.9-2 2-2s2 .9 2 2v9.2zm19.4 0h-6.1c-2.1 0-3.9-1.7-3.9-3.9v-14c0-2.1 1.7-3.9 3.9-3.9h6.1c2.1 0 3.9 1.7 3.9 3.9v14c0 2.1-1.7 3.9-3.9 3.9zm-5.9-4.1h5.8v-13.7h-5.8v13.7z"/>
  <g fill="#4E5C86">
    <path d="M603.2 175.7c-1.1 0-2-.9-2-2V158h-3.3c-1.1 0-2-.9-2-2s.9-2 2-2h7.4v19.8c-.1 1-1 1.9-2.1 1.9z"/>
    <path d="M610.6 175.7h-12.8c-1.1 0-2-.9-2-2s.9-2 2-2h8.7v-5.2c0-1.1.9-2 2-2s2 .9 2 2v9.2zm19.4 0h-6.1c-2.1 0-3.9-1.7-3.9-3.9v-14c0-2.1 1.7-3.9 3.9-3.9h6.1c2.1 0 3.9 1.7 3.9 3.9v14c0 2.1-1.8 3.9-3.9 3.9zm-6-4.1h5.8v-13.7H624v13.7z"/>
  </g>
  <circle fill="#3CB0E1" cx="610.4" cy="372.7" r="5.3"/>
  <circle fill="#3CB0E1" cx="585.8" cy="372.7" r="5.3"/>
  <circle fill="#3CB0E1" cx="561.2" cy="372.7" r="5.3"/>
  <g fill="#EC688E">
    <circle cx="536.6" cy="372.7" r="5.3"/>
    <circle cx="512" cy="372.7" r="5.3"/>
  </g>
  <path fill="#24A6EA" d="M680.1 307.5c1.1 1 1.1 2.8.1 3.9l-4 4.1c-1 1.1-2.8 1.1-3.9.1s-1.1-2.8-.1-3.9l4-4.1c1.1-1.1 2.8-1.2 3.9-.1zm-12.7-17c.7 1.3.2 3-1.2 3.7l-5.1 2.6c-1.3.7-3 .2-3.7-1.2-.7-1.3-.2-3 1.2-3.7l5.1-2.6c1.4-.7 3.1-.2 3.7 1.2zm-6.5-20.1c.2 1.5-.8 2.9-2.3 3.1l-5.7.9c-1.5.2-2.9-.8-3.1-2.3-.2-1.5.8-2.9 2.3-3.1l5.7-.9c1.5-.3 2.9.8 3.1 2.3zm.3-21.2c-.3 1.5-1.7 2.5-3.2 2.2l-5.6-1c-1.5-.3-2.5-1.7-2.2-3.2.3-1.5 1.7-2.5 3.2-2.2l5.6 1c1.5.3 2.5 1.7 2.2 3.2z"/>
  <path fill="#F5D56F" d="M668.2 229.2c-.7 1.3-2.4 1.8-3.7 1.1l-5-2.7c-1.3-.7-1.8-2.4-1.1-3.7.7-1.3 2.4-1.8 3.7-1.1l5 2.7c1.3.8 1.8 2.4 1.1 3.7z"/>
  <path fill="#EFA134" d="M734.7 193.6c-1.6 0-2.8-1.3-2.8-2.8v-5.9c0-1.6 1.3-2.8 2.8-2.8 1.6 0 2.8 1.3 2.8 2.8v5.9c0 1.5-1.2 2.8-2.8 2.8zm21.6 3.6c-1.5-.5-2.3-2.1-1.8-3.6l1.9-5.6c.5-1.5 2.1-2.3 3.6-1.8 1.5.5 2.3 2.1 1.8 3.6l-1.9 5.6c-.5 1.5-2.1 2.3-3.6 1.8zm19.3 10.3c-1.2-.9-1.5-2.7-.5-4l3.6-4.7c.9-1.2 2.7-1.5 4-.5 1.2.9 1.5 2.7.5 4l-3.6 4.7c-1 1.2-2.8 1.4-4 .5zm14.9 15.9c-.9-1.3-.5-3 .8-3.9l4.9-3.3c1.3-.9 3-.5 3.9.8.9 1.3.5 3-.8 3.9l-4.9 3.3c-1.2.8-3 .5-3.9-.8zm9.1 19.8c-.4-1.5.5-3.1 2-3.5l5.7-1.6c1.5-.4 3.1.5 3.5 2 .4 1.5-.5 3.1-2 3.5l-5.7 1.6c-1.5.4-3-.5-3.5-2zm2.3 21.8c.1-1.6 1.4-2.7 3-2.7l5.9.3c1.6.1 2.7 1.4 2.7 3-.1 1.6-1.4 2.7-3 2.7l-5.9-.3c-1.6-.1-2.8-1.5-2.7-3zm-4.8 21.3c.6-1.4 2.2-2.1 3.7-1.6l5.5 2.2c1.4.6 2.1 2.2 1.6 3.7-.6 1.4-2.2 2.1-3.7 1.6l-5.5-2.2c-1.5-.6-2.2-2.3-1.6-3.7zm-11.4 18.6c1-1.2 2.8-1.3 4-.3l4.5 3.9c1.2 1 1.3 2.8.3 4-1 1.2-2.8 1.3-4 .3l-4.5-3.9c-1.2-1-1.3-2.8-.3-4zM768.9 319c1.3-.8 3.1-.4 3.9 1l3 5.1c.8 1.3.4 3.1-1 3.9-1.3.8-3.1.4-3.9-1l-3-5.1c-.7-1.4-.3-3.1 1-3.9zm-20.3 7.9c1.5-.3 3 .6 3.3 2.2l1.2 5.8c.3 1.5-.6 3-2.2 3.3-1.5.3-3-.6-3.3-2.2l-1.2-5.8c-.3-1.5.7-3 2.2-3.3zm-21.8 1c1.5.2 2.7 1.6 2.5 3.1l-.7 5.9c-.2 1.5-1.6 2.7-3.1 2.5-1.5-.2-2.7-1.6-2.5-3.1l.7-5.9c.1-1.6 1.5-2.7 3.1-2.5zm-21-6.1c1.4.7 2 2.3 1.3 3.8l-2.5 5.4c-.7 1.4-2.3 2-3.8 1.3-1.4-.7-2-2.3-1.3-3.8l2.5-5.4c.7-1.3 2.3-1.9 3.8-1.3zm7.1-124.6c-1.5.5-3.1-.3-3.6-1.8l-1.9-5.6c-.5-1.5.3-3.1 1.8-3.6s3.1.3 3.6 1.8l1.9 5.6c.5 1.5-.3 3.1-1.8 3.6z"/>
  <g fill="#E38C2B">
    <path d="M741.9 262.2h-4.8c-3 0-5.4-2.4-5.4-5.4s2.4-5.4 5.4-5.4h4.8c3.1 0 5.5-2.5 5.5-5.5s-2.5-5.5-5.5-5.5h-23.7c-3 0-5.4-2.4-5.4-5.4 0-3 2.4-5.4 5.4-5.4h23.7c9.1 0 16.4 7.4 16.4 16.4s-7.4 16.2-16.4 16.2zm5 28.1h-28.8c-3 0-5.4-2.4-5.4-5.4 0-3 2.4-5.4 5.4-5.4h28.8c4.2 0 7.7-3.4 7.7-7.7 0-2.8-.9-3.9-1.1-4.1-2.1-2.2-2-5.6.1-7.7 2.2-2.1 5.6-2 7.7.1 2.7 2.8 4.1 6.9 4.1 11.6.1 10.3-8.2 18.6-18.5 18.6z"/>
    <path d="M723.3 276.6c-3 0-5.4-2.4-5.4-5.4v-23c0-3 2.4-5.4 5.4-5.4s5.4 2.4 5.4 5.4v23c0 3-2.4 5.4-5.4 5.4zm11-42.7c-3 0-5.4-2.4-5.4-5.4v-3.7c0-3 2.4-5.4 5.4-5.4s5.4 2.4 5.4 5.4v3.7c0 3-2.4 5.4-5.4 5.4zm0 64.2c-3 0-5.4-2.4-5.4-5.4V289c0-3 2.4-5.4 5.4-5.4s5.4 2.4 5.4 5.4v3.7c0 3-2.4 5.4-5.4 5.4z"/>
  </g>
  <path fill="#7883A5" d="M657 185.7c-1.9 0-3.4-1.5-3.4-3.4v-10.9c0-4.5-3.6-8.1-8.1-8.1H632c-1.9 0-3.4-1.5-3.4-3.4s1.5-3.4 3.4-3.4h13.5c8.2 0 14.9 6.7 14.9 14.9v10.9c0 1.9-1.5 3.4-3.4 3.4zm-361.9 0c-1.9 0-3.4-1.5-3.4-3.4v-10.9c0-8.2 6.7-14.9 14.9-14.9h17.1c1.9 0 3.4 1.5 3.4 3.4s-1.5 3.4-3.4 3.4h-17.1c-4.5 0-8.1 3.6-8.1 8.1v10.9c0 1.9-1.5 3.4-3.4 3.4zm350.4 189.7H632c-1.9 0-3.4-1.5-3.4-3.4s1.5-3.4 3.4-3.4h13.5c4.5 0 8.1-3.6 8.1-8.1v-10.9c0-1.9 1.5-3.4 3.4-3.4s3.4 1.5 3.4 3.4v10.9c0 8.2-6.6 14.9-14.9 14.9zm-321.8 0h-17.1c-8.2 0-14.9-6.7-14.9-14.9v-10.9c0-1.9 1.5-3.4 3.4-3.4s3.4 1.5 3.4 3.4v10.9c0 4.5 3.6 8.1 8.1 8.1h17.1c1.9 0 3.4 1.5 3.4 3.4s-1.5 3.4-3.4 3.4z"/>
  <g fill="#8791AF">
    <path d="M321.8 329.1c-1.9 0-3.4-1.5-3.4-3.4v-8.3c0-1.9 1.5-3.4 3.4-3.4s3.4 1.5 3.4 3.4v8.3c0 1.9-1.5 3.4-3.4 3.4zm-13.1 0c-1.9 0-3.4-1.5-3.4-3.4v-8.3c0-1.9 1.5-3.4 3.4-3.4s3.4 1.5 3.4 3.4v8.3c0 1.9-1.6 3.4-3.4 3.4z"/>
    <path d="M276.1 319.6h31.7v3.4h-31.7zm24.7-63.2c-1.9 0-3.4-1.5-3.4-3.4v-8.3c0-1.9 1.5-3.4 3.4-3.4s3.4 1.5 3.4 3.4v8.3c0 1.9-1.5 3.4-3.4 3.4zm-13.1 0c-1.9 0-3.4-1.5-3.4-3.4v-8.3c0-1.9 1.5-3.4 3.4-3.4s3.4 1.5 3.4 3.4v8.3c0 1.9-1.5 3.4-3.4 3.4z"/>
    <path d="M276.1 246.9h10.7v3.4h-10.7zm38-28c-1.9 0-3.4-1.5-3.4-3.4v-8.3c0-1.9 1.5-3.4 3.4-3.4s3.4 1.5 3.4 3.4v8.3c0 1.9-1.5 3.4-3.4 3.4zm-13.1 0c-1.9 0-3.4-1.5-3.4-3.4v-8.3c0-1.9 1.5-3.4 3.4-3.4s3.4 1.5 3.4 3.4v8.3c0 1.9-1.5 3.4-3.4 3.4z"/>
    <path d="M276.1 209.4h24v3.4h-24z"/>
  </g>
  <circle fill="#616E8C" cx="371.2" cy="164.7" r="13.1"/>
  <path fill="#616E8C" d="M436.8 163.1h-40.4c-2 0-3.6-1.6-3.6-3.6s1.6-3.6 3.6-3.6h40.4c2 0 3.6 1.6 3.6 3.6.1 2-1.6 3.6-3.6 3.6zm-19.6 11.8h-20.8c-2 0-3.6-1.6-3.6-3.6s1.6-3.6 3.6-3.6h20.8c2 0 3.6 1.6 3.6 3.6s-1.6 3.6-3.6 3.6z"/>
  <circle fill="#8791AF" cx="371.2" cy="159.8" r="4.1"/>
  <path fill="#8791AF" d="M371.2 162.3c-4.3 0-7.8 3.5-7.8 7.8v.3c2.2 1.6 4.8 2.6 7.8 2.6 2.9 0 5.6-1 7.8-2.6v-.3c0-4.3-3.5-7.8-7.8-7.8z"/>
  <path fill="#ACC6DE" d="M374.6 285.4c0 4.1 3.3 7.4 7.4 7.4s7.4-3.3 7.4-7.4c0-4.1-3.3-7.4-7.4-7.4s-7.4 3.3-7.4 7.4zm3.1 0c0-2.4 1.9-4.3 4.3-4.3s4.3 1.9 4.3 4.3-1.9 4.3-4.3 4.3-4.3-1.9-4.3-4.3z"/>
  <path fill="#848EA5" d="M374.6 248.8c0 4.1 3.3 7.4 7.4 7.4s7.4-3.3 7.4-7.4-3.3-7.4-7.4-7.4-7.4 3.3-7.4 7.4zm3.1 0c0-2.4 1.9-4.3 4.3-4.3s4.3 1.9 4.3 4.3-1.9 4.3-4.3 4.3-4.3-1.9-4.3-4.3z"/>
  <path fill="#D9ECF0" d="M489.1 329.3h14.6c4.1 0 7.4-3.3 7.4-7.4 0-4.1-3.3-7.4-7.4-7.4h-14.6c-4.1 0-7.4 3.3-7.4 7.4 0 4.1 3.3 7.4 7.4 7.4z"/>
  <path fill="#EC688E" d="M530.7 329.3h29c4.1 0 7.4-3.3 7.4-7.4 0-4.1-3.3-7.4-7.4-7.4h-29c-4.1 0-7.4 3.3-7.4 7.4 0 4.1 3.4 7.4 7.4 7.4z"/>
  <path fill="#F4D05D" d="M592.3 329.3h9.8c4.1 0 7.4-3.3 7.4-7.4 0-4.1-3.3-7.4-7.4-7.4h-9.8c-4.1 0-7.4 3.3-7.4 7.4 0 4.1 3.3 7.4 7.4 7.4z"/>
  <path fill="#B5D3E2" d="M434.2 321.9c0 4.1 3.3 7.4 7.4 7.4s7.4-3.3 7.4-7.4-3.3-7.4-7.4-7.4-7.4 3.3-7.4 7.4zm3.1 0c0-2.4 1.9-4.3 4.3-4.3s4.3 1.9 4.3 4.3-1.9 4.3-4.3 4.3-4.3-1.9-4.3-4.3z"/>
  <path fill="#848EA5" d="M410.2 321.9c0 4.1 3.3 7.4 7.4 7.4s7.4-3.3 7.4-7.4-3.3-7.4-7.4-7.4-7.4 3.3-7.4 7.4zm3.1 0c0-2.4 1.9-4.3 4.3-4.3s4.3 1.9 4.3 4.3-1.9 4.3-4.3 4.3c-2.3 0-4.3-1.9-4.3-4.3z"/>
  <path fill="#B5D3E2" d="M386.3 321.9c0 4.1 3.3 7.4 7.4 7.4 4.1 0 7.4-3.3 7.4-7.4s-3.3-7.4-7.4-7.4c-4.1 0-7.4 3.3-7.4 7.4zm3.1 0c0-2.4 1.9-4.3 4.3-4.3s4.3 1.9 4.3 4.3-1.9 4.3-4.3 4.3-4.3-1.9-4.3-4.3z"/>
  <path fill="#3CB0EC" d="M362.4 321.9c0 4.1 3.3 7.4 7.4 7.4 4.1 0 7.4-3.3 7.4-7.4s-3.3-7.4-7.4-7.4c-4.1 0-7.4 3.3-7.4 7.4zm3.1 0c0-2.4 1.9-4.3 4.3-4.3s4.3 1.9 4.3 4.3-1.9 4.3-4.3 4.3-4.3-1.9-4.3-4.3z"/>
  <path fill="#F1AC4B" d="M338.5 321.9c0 4.1 3.3 7.4 7.4 7.4s7.4-3.3 7.4-7.4-3.3-7.4-7.4-7.4-7.4 3.3-7.4 7.4zm3.1 0c0-2.4 1.9-4.3 4.3-4.3s4.3 1.9 4.3 4.3-1.9 4.3-4.3 4.3-4.3-1.9-4.3-4.3z"/>
  <path fill="#D9ECF0" d="M447 292.8h43.9c4.1 0 7.4-3.3 7.4-7.4 0-4.1-3.3-7.4-7.4-7.4H447c-4.1 0-7.4 3.3-7.4 7.4 0 4.1 3.3 7.4 7.4 7.4z"/>
  <path fill="#EC688E" d="M525.3 292.8h35.6c4.1 0 7.4-3.3 7.4-7.4 0-4.1-3.3-7.4-7.4-7.4h-35.6c-4.1 0-7.4 3.3-7.4 7.4 0 4.1 3.3 7.4 7.4 7.4z"/>
  <path fill="#D9ECF0" d="M516.2 292.8h35.6c4.1 0 7.4-3.3 7.4-7.4 0-4.1-3.3-7.4-7.4-7.4h-35.6c-4.1 0-7.4 3.3-7.4 7.4 0 4.1 3.3 7.4 7.4 7.4z"/>
  <path fill="#B5D3E2" d="M398.5 285.4c0 4.1 3.3 7.4 7.4 7.4 4.1 0 7.4-3.3 7.4-7.4 0-4.1-3.3-7.4-7.4-7.4-4 0-7.4 3.3-7.4 7.4zm3.2 0c0-2.4 1.9-4.3 4.3-4.3s4.3 1.9 4.3 4.3-1.9 4.3-4.3 4.3-4.3-1.9-4.3-4.3z"/>
  <path fill="#F1AC4B" d="M382 289.7c-2.4 0-4.3-1.9-4.3-4.3s1.9-4.3 4.3-4.3V278c-4.1 0-7.4 3.3-7.4 7.4 0 4.1 3.3 7.4 7.4 7.4v-3.1z"/>
  <path fill="#B5D3E2" d="M326.8 285.4c0 4.1 3.3 7.4 7.4 7.4s7.4-3.3 7.4-7.4c0-4.1-3.3-7.4-7.4-7.4s-7.4 3.3-7.4 7.4zm3.1 0c0-2.4 1.9-4.3 4.3-4.3s4.3 1.9 4.3 4.3-1.9 4.3-4.3 4.3-4.3-1.9-4.3-4.3z"/>
  <path fill="#848EA5" d="M504.7 256.2H580c4.1 0 7.4-3.3 7.4-7.4 0-4.1-3.3-7.4-7.4-7.4h-75.2c-4.1 0-7.4 3.3-7.4 7.4-.1 4.1 3.2 7.4 7.3 7.4z"/>
  <path fill="#D9ECF0" d="M464.7 256.2h75.2c4.1 0 7.4-3.3 7.4-7.4 0-4.1-3.3-7.4-7.4-7.4h-75.2c-4.1 0-7.4 3.3-7.4 7.4 0 4.1 3.3 7.4 7.4 7.4z"/>
  <path fill="#F4D05D" d="M564.7 256.2h8.2c4.1 0 7.4-3.3 7.4-7.4 0-4.1-3.3-7.4-7.4-7.4h-8.2c-4.1 0-7.4 3.3-7.4 7.4 0 4.1 3.3 7.4 7.4 7.4z"/>
  <path fill="#3CB0EC" d="M422.5 248.8c0 4.1 3.3 7.4 7.4 7.4 4.1 0 7.4-3.3 7.4-7.4s-3.3-7.4-7.4-7.4c-4.1 0-7.4 3.3-7.4 7.4zm3.1 0c0-2.4 1.9-4.3 4.3-4.3s4.3 1.9 4.3 4.3-1.9 4.3-4.3 4.3-4.3-1.9-4.3-4.3z"/>
  <path fill="#B5D3E2" d="M398.5 248.8c0 4.1 3.3 7.4 7.4 7.4 4.1 0 7.4-3.3 7.4-7.4s-3.3-7.4-7.4-7.4c-4 0-7.4 3.3-7.4 7.4zm3.2 0c0-2.4 1.9-4.3 4.3-4.3s4.3 1.9 4.3 4.3-1.9 4.3-4.3 4.3-4.3-1.9-4.3-4.3z"/>
  <path fill="#F1AC4B" d="M422.5 248.8c0 4.1 3.3 7.4 7.4 7.4V253c-2.4 0-4.3-1.9-4.3-4.3s1.9-4.3 4.3-4.3v-3.1c-4.1.1-7.4 3.4-7.4 7.5z"/>
  <path fill="#FF532B" d="M350.7 248.8c0 4.1 3.3 7.4 7.4 7.4s7.4-3.3 7.4-7.4-3.3-7.4-7.4-7.4-7.4 3.3-7.4 7.4zm3.1 0c0-2.4 1.9-4.3 4.3-4.3s4.3 1.9 4.3 4.3-1.9 4.3-4.3 4.3-4.3-1.9-4.3-4.3z"/>
  <path fill="#B5D3E2" d="M326.8 248.8c0 4.1 3.3 7.4 7.4 7.4s7.4-3.3 7.4-7.4-3.3-7.4-7.4-7.4-7.4 3.3-7.4 7.4zm3.1 0c0-2.4 1.9-4.3 4.3-4.3s4.3 1.9 4.3 4.3-1.9 4.3-4.3 4.3-4.3-1.9-4.3-4.3z"/>
  <path fill="#D9ECF0" d="M429.6 219.7H464c4.1 0 7.4-3.3 7.4-7.4 0-4.1-3.3-7.4-7.4-7.4h-34.3c-4.1 0-7.4 3.3-7.4 7.4-.1 4.1 3.3 7.4 7.3 7.4z"/>
  <path fill="#EC688E" d="M540.9 219.7h3c4.1 0 7.4-3.3 7.4-7.4 0-4.1-3.3-7.4-7.4-7.4h-3c-4.1 0-7.4 3.3-7.4 7.4 0 4.1 3.3 7.4 7.4 7.4z"/>
  <path fill="#F4D05D" d="M592.5 219.7h24.7c4.1 0 7.4-3.3 7.4-7.4 0-4.1-3.3-7.4-7.4-7.4h-24.7c-4.1 0-7.4 3.3-7.4 7.4 0 4.1 3.3 7.4 7.4 7.4z"/>
  <path fill="#D9ECF0" d="M496.1 219.7h14.6c4.1 0 7.4-3.3 7.4-7.4 0-4.1-3.3-7.4-7.4-7.4h-14.6c-4.1 0-7.4 3.3-7.4 7.4 0 4.1 3.3 7.4 7.4 7.4z"/>
  <path fill="#B5D3E2" d="M390.6 212.3c0 4.1 3.3 7.4 7.4 7.4s7.4-3.3 7.4-7.4c0-4.1-3.3-7.4-7.4-7.4s-7.4 3.3-7.4 7.4zm3.1 0c0-2.4 1.9-4.3 4.3-4.3s4.3 1.9 4.3 4.3-1.9 4.3-4.3 4.3-4.3-2-4.3-4.3z"/>
  <path fill="#848EA5" d="M366.6 212.3c0 4.1 3.3 7.4 7.4 7.4s7.4-3.3 7.4-7.4c0-4.1-3.3-7.4-7.4-7.4s-7.4 3.3-7.4 7.4zm3.2 0c0-2.4 1.9-4.3 4.3-4.3s4.3 1.9 4.3 4.3-1.9 4.3-4.3 4.3-4.3-2-4.3-4.3z"/>
  <path fill="#FF532B" d="M342.7 212.3c0 4.1 3.3 7.4 7.4 7.4 4.1 0 7.4-3.3 7.4-7.4 0-4.1-3.3-7.4-7.4-7.4-4.1 0-7.4 3.3-7.4 7.4zm3.1 0c0-2.4 1.9-4.3 4.3-4.3s4.3 1.9 4.3 4.3-1.9 4.3-4.3 4.3c-2.3 0-4.3-2-4.3-4.3z"/>
  <circle fill="#576585" cx="539.2" cy="248.8" r="4.3"/>
  <circle fill="#EFA235" cx="572.6" cy="248.8" r="4.3"/>
  <circle fill="#EFA235" cx="600.6" cy="321.9" r="4.3"/>
  <circle fill="#576585" cx="461.6" cy="212.3" r="4.3"/>
  <circle fill="#EC688E" cx="593" cy="212.3" r="4.3"/>
  <circle fill="#576585" cx="490" cy="285.4" r="4.3"/>
  <path fill="#F5D56F" d="M680.7 257.4v-47.3c-9.7 9.2-16.7 21.2-19.7 34.7 7.3 2.8 14.3 7 19.7 12.6zm-37.1-16.9l3.9.6c4.7-20.1 16.8-37.4 33.1-48.9v-4.8c-18.3 12.1-31.9 31-37 53.1z"/>
  <path fill="#F5D56F" d="M680.7 207.9l-3.2-3.4c-1-1.1-2.8-1.2-3.9-.2s-1.2 2.8-.2 3.9l3.9 4.2c.9.9 2.2 1.1 3.3.6v-5.1z"/>
  <g fill="#C2CED4">
    <path d="M730.8 26.3c-.2 0-.5 0-.7-.1-1.4-.4-2.3-1.9-1.9-3.4l4.7-16.6-3.2-.9c-1.4-.4-2.3-1.9-1.9-3.4.4-1.4 1.9-2.3 3.4-1.9l8.4 2.4-6.2 21.8c-.4 1.3-1.5 2.1-2.6 2.1z"/>
    <path d="M738.4 28.5l-14.2-4c-1.4-.4-2.3-1.9-1.9-3.4.4-1.4 1.9-2.3 3.4-1.9l9 2.6 1.5-5.2c.4-1.4 1.9-2.3 3.4-1.9 1.4.4 2.3 1.9 1.9 3.4l-3.1 10.4zm21.3 6.8c-.6 0-1.2-.1-1.8-.3l-6.4-2.5c-2.5-1-3.7-3.8-2.7-6.2l5.7-14.7c.5-1.2 1.4-2.1 2.5-2.6 1.2-.5 2.5-.5 3.7-.1l6.4 2.5c2.5 1 3.7 3.8 2.7 6.2l-5.7 14.7c-.5 1.2-1.4 2.1-2.5 2.6-.6.3-1.2.4-1.9.4zm.2-5.4zm-5.8-2.3l5.2 2 5.3-13.5-5.2-2-5.3 13.5zM779 43.5c-.4 0-.8-.1-1.2-.3-1.4-.7-1.9-2.3-1.3-3.6l7.5-15.5-3-1.4c-1.4-.7-1.9-2.3-1.3-3.6.7-1.4 2.3-1.9 3.6-1.3l7.9 3.8-9.9 20.4c-.3.9-1.3 1.5-2.3 1.5z"/>
    <path d="M785.7 47l-13.3-6.4c-1.4-.7-1.9-2.3-1.3-3.6.7-1.4 2.3-1.9 3.6-1.3l8.4 4.1 2.3-4.8c.7-1.4 2.3-1.9 3.6-1.3 1.4.7 1.9 2.3 1.3 3.6l-4.6 9.7zm20.5 11.6c-.8 0-1.6-.2-2.4-.6l-6-3.4c-2.3-1.3-3.1-4.3-1.8-6.6l7.8-13.7c.6-1.1 1.7-1.9 2.9-2.2 1.2-.3 2.5-.2 3.6.5l6 3.4c2.3 1.3 3.1 4.3 1.8 6.6l-7.8 13.7c-.6 1.1-1.7 1.9-2.9 2.2-.4.1-.8.1-1.2.1zm.3-5.3zm-5.4-3.1L806 53l7.2-12.6-4.9-2.8-7.2 12.6z"/>
  </g>
  <g fill="#C2CED4">
    <path d="M53.9 429.4c-.9 0-1.7-.4-2.3-1.2l-4.5-6.7 17-11.5c1.2-.8 2.9-.5 3.8.7.8 1.2.5 2.9-.7 3.8l-12.5 8.4 1.5 2.2c.8 1.2.5 2.9-.7 3.8-.5.3-1 .5-1.6.5z"/>
    <path d="M68.6 419.4c-.9 0-1.7-.4-2.3-1.2l-4.5-6.7-3.7 2.5c-1.2.8-2.9.5-3.8-.7-.8-1.2-.5-2.9.7-3.8l8.2-5.6 7.6 11.2c.8 1.2.5 2.9-.7 3.8-.4.3-.9.5-1.5.5zm-28.1-11.9c-1.6 0-3.2-.9-4-2.4l-2.9-5.4c-.6-1.1-.7-2.3-.4-3.5.3-1.2 1.1-2.1 2.2-2.7l12.3-6.7c1.1-.6 2.3-.7 3.5-.4 1.2.3 2.1 1.1 2.7 2.2l2.9 5.4c.6 1.1.7 2.3.4 3.5-.3 1.2-1.1 2.1-2.2 2.7L42.7 407c-.7.4-1.5.5-2.2.5zm-1.8-9.6l2.1 3.9 10.8-5.9-2.1-3.9-10.8 5.9zm10.4-6.6zm-20.5-3.6c-1 0-2-.6-2.5-1.6l-3.3-7.4 18.7-8.4c1.4-.6 3 0 3.6 1.4.6 1.4 0 3-1.4 3.6L30 381.5l1.1 2.4c.6 1.4 0 3-1.4 3.6-.4.1-.8.2-1.1.2z"/>
    <path d="M44.8 380.4c-1 0-2-.6-2.5-1.6l-3.3-7.3-4.1 1.8c-1.4.6-3 0-3.6-1.4-.6-1.4 0-3 1.4-3.6l9.1-4.1 5.5 12.3c.6 1.4 0 3-1.4 3.6-.4.2-.8.3-1.1.3zm-24.3-16.9c-.7 0-1.3-.1-1.9-.4-1.1-.5-2-1.4-2.4-2.6l-2.1-5.8c-.4-1.1-.4-2.4.1-3.5s1.4-2 2.6-2.4L30 344c2.4-.9 5 .3 5.9 2.7l2.1 5.8c.9 2.4-.4 5-2.7 5.9L22 363.2c-.5.2-1 .3-1.5.3zm-1.1-9.9l1.5 4.1 11.6-4.2-1.5-4.1-11.6 4.2zm-7-12.3c-1.2 0-2.3-.8-2.6-2.1l-1.9-7.9 19.9-4.8c1.5-.4 2.9.5 3.3 2 .4 1.5-.5 2.9-2 3.3l-14.6 3.5.5 2.7c.4 1.5-.5 2.9-2 3.3h-.6z"/>
    <path d="M29.7 337.1c-1.2 0-2.3-.8-2.6-2.1l-1.9-7.8-4.4 1.1c-1.5.4-2.9-.5-3.3-2-.4-1.5.5-2.9 2-3.3l9.7-2.3 3.2 13.1c.4 1.5-.5 2.9-2 3.3h-.7zM8.1 316.3c-2.2 0-4.2-1.7-4.5-3.9l-.9-6.1c-.2-1.2.1-2.4.9-3.4.7-1 1.8-1.6 3-1.8l13.9-2c2.5-.4 4.8 1.4 5.2 3.9l.9 6.1c.4 2.5-1.4 4.8-3.9 5.2l-13.9 2h-.7zm.1-9.9l.6 4.4L21 309l-.6-4.4-12.2 1.8zm-5-13c-1.4 0-2.6-1.1-2.7-2.5l-.5-8.2 20.4-1.3c1.5-.1 2.8 1 2.9 2.5.1 1.5-1 2.8-2.5 2.9l-15 1 .2 2.7c.1 1.5-1 2.8-2.5 2.9h-.3z"/>
    <path d="M21 292.3c-1.4 0-2.6-1.1-2.7-2.5l-.5-8-4.5.3c-1.5.1-2.8-1-2.9-2.5-.1-1.5 1-2.8 2.5-2.9l9.9-.6.9 13.5c.1 1.5-1 2.8-2.5 2.9-.1-.2-.2-.2-.2-.2zm-2.2-24.2L4.7 268c-1.2 0-2.4-.5-3.2-1.4-.9-.9-1.3-2-1.3-3.2v-6.1c0-2.5 2.1-4.6 4.6-4.5l14 .1c1.2 0 2.4.5 3.2 1.4s1.3 2 1.3 3.2v6.1c0 1.2-.5 2.4-1.4 3.2-.7.8-1.9 1.3-3.1 1.3zm-13.2-5.5l12.3.1v-4.4l-12.3-.1v4.4zm15.1-5.2z"/>
  </g>
  <g fill="#C2CED4">
    <path d="M50.1 252.7c-1.5 0-2.7-1.2-2.7-2.7v-18.9h-3.8c-1.5 0-2.7-1.2-2.7-2.7s1.2-2.7 2.7-2.7h9.3V250c0 1.5-1.2 2.7-2.8 2.7z"/>
    <path d="M59.4 252.7H43.6c-1.5 0-2.7-1.2-2.7-2.7 0-1.5 1.2-2.7 2.7-2.7H54v-6.1c0-1.5 1.2-2.7 2.7-2.7s2.7 1.2 2.7 2.7v11.5zm17.4-16.2h-7.5c-2.7 0-5-2.2-5-5v-17.1c0-2.7 2.2-5 5-5h7.5c2.7 0 5 2.2 5 5v17.1c0 2.7-2.3 5-5 5zm-7-5.5h6.6v-16.2h-6.6V231zm29.9 21.7c-1.5 0-2.7-1.2-2.7-2.7v-18.9h-3.8c-1.5 0-2.7-1.2-2.7-2.7s1.2-2.7 2.7-2.7h9.3V250c-.1 1.5-1.3 2.7-2.8 2.7z"/>
    <path d="M109 252.7H93.1c-1.5 0-2.7-1.2-2.7-2.7 0-1.5 1.2-2.7 2.7-2.7h10.4v-6.1c0-1.5 1.2-2.7 2.7-2.7s2.7 1.2 2.7 2.7v11.5zm17.3-16.2h-7.5c-2.7 0-5-2.2-5-5v-17.1c0-2.7 2.2-5 5-5h7.5c2.7 0 5 2.2 5 5v17.1c0 2.7-2.2 5-5 5zm-7-5.5h6.6v-16.2h-6.6V231zm29.5 21.7c-1.5 0-2.7-1.2-2.7-2.7v-18.9h-3.8c-1.5 0-2.7-1.2-2.7-2.7s1.2-2.7 2.7-2.7h9.3V250c-.1 1.5-1.3 2.7-2.8 2.7z"/>
    <path d="M158.1 252.7h-15.8c-1.5 0-2.7-1.2-2.7-2.7 0-1.5 1.2-2.7 2.7-2.7h10.4v-6.1c0-1.5 1.2-2.7 2.7-2.7s2.7 1.2 2.7 2.7v11.5zm17.4-16.2H168c-2.7 0-5-2.2-5-5v-17.1c0-2.7 2.2-5 5-5h7.5c2.7 0 5 2.2 5 5v17.1c-.1 2.7-2.3 5-5 5zm-7.1-5.5h6.6v-16.2h-6.6V231z"/>
  </g>
  <circle fill="#FF8BA9" cx="207.2" cy="78" r="22.9"/>
  <path fill="#FFF" d="M213.4 68.3c-2.7 0-5.1 1.6-6.2 3.9-1.1-2.3-3.5-3.9-6.2-3.9-3.9 0-7 3.1-7 7 0 1.3.3 2.5.9 3.5 1.2 2.1 12.3 13.3 12.3 13.3s11.6-11.6 12.6-14.1c.4-.8.5-1.8.5-2.7 0-3.9-3.1-7-6.9-7z"/>
  <path fill="#C2CED4" d="M602.7 457.6h-70.9c-3 0-5.4-2.4-5.4-5.4 0-3 2.4-5.4 5.4-5.4h70.9c3 0 5.4 2.4 5.4 5.4.1 2.9-2.4 5.4-5.4 5.4z"/>
  <path fill="#FF8BA9" d="M635.4 469.9c-9.8 0-17.7-7.9-17.7-17.7 0-9.8 7.9-17.7 17.7-17.7 9.8 0 17.7 7.9 17.7 17.7 0 9.8-8 17.7-17.7 17.7zm0-28.6c-6 0-10.9 4.9-10.9 10.9s4.9 10.9 10.9 10.9 10.9-4.9 10.9-10.9-4.9-10.9-10.9-10.9zm213.1-228.9c-6.3 0-11.5-5.1-11.5-11.5 0-6.3 5.1-11.5 11.5-11.5 6.3 0 11.5 5.1 11.5 11.5-.1 6.3-5.2 11.5-11.5 11.5zm0-16.1c-2.6 0-4.7 2.1-4.7 4.7s2.1 4.7 4.7 4.7 4.7-2.1 4.7-4.7-2.1-4.7-4.7-4.7zM720.3 540.5h-28.9c-1.9 0-3.4-1.5-3.4-3.4V510c0-1.9 1.5-3.4 3.4-3.4h28.9c1.9 0 3.4 1.5 3.4 3.4v27.1c0 1.9-1.5 3.4-3.4 3.4zm-25.5-6.8h22.1v-20.3h-22.1v20.3zM834 433.4c-.8 0-1.6-.3-2.2-.8L799 404.4l-6.9 8.1c-.6.7-1.4 1.1-2.3 1.2-.9.1-1.8-.2-2.5-.8l-13.6-11.6c-1.4-1.2-1.6-3.4-.4-4.8 1.2-1.4 3.4-1.6 4.8-.4l11 9.4 6.9-8.1c.6-.7 1.4-1.1 2.3-1.2.9-.1 1.8.2 2.5.8l32.8 28.2 7.5-8.7c1.2-1.4 3.4-1.6 4.8-.4 1.4 1.2 1.6 3.4.4 4.8l-9.7 11.3c-.6.7-1.4 1.1-2.3 1.2h-.3z"/>
  <path fill="#C2CED4" d="M773.8 472.5c-3 0-5.4-2.4-5.4-5.4V362.8c0-3 2.4-5.4 5.4-5.4s5.4 2.4 5.4 5.4V467c0 3-2.4 5.5-5.4 5.5z"/>
  <path fill="#C2CED4" d="M867.2 452.6H764.8c-3 0-5.4-2.4-5.4-5.4s2.4-5.4 5.4-5.4h102.4c3 0 5.4 2.4 5.4 5.4s-2.4 5.4-5.4 5.4zm-68.7-17.7c-.7 0-1.5-.2-2.1-.8l-13-10.5-5.4 6.7c-1.2 1.5-3.3 1.7-4.8.5s-1.7-3.3-.5-4.8l7.5-9.3c1.2-1.5 3.3-1.7 4.8-.5l13 10.5 38.2-46.6c1.2-1.4 3.3-1.7 4.8-.5l11.7 9.4 9.4-12.2-1.8.6c-1.8.6-3.7-.4-4.3-2.1-.6-1.8.4-3.7 2.1-4.3l12.4-4.1c1.4-.5 3 0 3.8 1.3.9 1.2.8 2.9-.1 4L855.9 396c-.6.7-1.4 1.2-2.3 1.3-.9.1-1.8-.2-2.5-.7l-11.7-9.5-38.2 46.6c-.7.8-1.7 1.2-2.7 1.2z"/>
  <path fill="#C2CED4" d="M871.1 386.2h-.1c-1.9-.1-3.3-1.6-3.3-3.5l.4-12.7c.1-1.9 1.6-3.4 3.5-3.3 1.9.1 3.3 1.6 3.3 3.5l-.4 12.7c0 1.8-1.5 3.3-3.4 3.3z"/>
  <path fill="#ACC6DE" d="M858.6 119.4H758.2c-4.9 0-8.9-4-8.9-8.9V79.7c0-4.9 4-8.9 8.9-8.9h100.4c4.9 0 8.9 4 8.9 8.9v30.8c0 4.9-4 8.9-8.9 8.9z"/>
  <path fill="#ACC6DE" d="M760.6 118.6c4.1 3 5.2 8.7 2.4 14 7.3-1.6 15-10.2 15.6-14.6-6.8-2-16.2-1.4-18 .6z"/>
  <path fill="#FFF" d="M816.3 91h-52.1c-2.3 0-4.1-1.8-4.1-4.1s1.8-4.1 4.1-4.1h52.1c2.3 0 4.1 1.8 4.1 4.1s-1.8 4.1-4.1 4.1zm-20.6 14.4h-31.5c-2.3 0-4.1-1.8-4.1-4.1s1.8-4.1 4.1-4.1h31.5c2.3 0 4.1 1.8 4.1 4.1-.1 2.3-1.9 4.1-4.1 4.1z"/>
  <path fill="#8AA6D1" d="M867.5 94.2V79.7c0-4.9-4-8.9-8.9-8.9h-20.1c-.4.9-.7 1.8-.7 2.5H834c-2.5 0-4.5 2-4.5 4.5v8c0 2.5 2 4.5 4.5 4.5h3.7c.2 4.4 3.2 5.9 6.9 5.9h18c2.1.1 3.7-.6 4.9-2z"/>
  <path fill="#FF8BA9" d="M867.4 60.5h-4.8c4.6-4.2 6.1-8.6 5.6-13.7-.5-5-8.4-5-9 .4-1.3 11-13.3 13.6-14.1 14-2.6 1.3-3.7 4.3-3.9 5.9h-3.7c-2.5 0-4.5 2-4.5 4.5v8c0 2.5 2 4.5 4.5 4.5h3.7c.2 4.4 3.2 5.9 6.9 5.9h18c3.7 0 6.1-2.1 6.6-6.6l1.7-15.1c.5-4.9-3.1-7.8-7-7.8z"/>
  <circle fill="#F5D56F" cx="156.9" cy="501.4" r="45"/>
  <circle fill="#E69942" cx="156.9" cy="501.4" r="33.4"/>
  <circle fill="#F5D56F" cx="156.9" cy="501.4" r="30.4"/>
  <path fill="#F1AC4B" d="M168.8 468.1c-1.1-.4-1.6-1.6-1.2-2.6l1.2-3.4c.4-1.1 1.6-1.6 2.6-1.2 1.1.4 1.6 1.6 1.2 2.6l-1.2 3.4c-.3 1-1.5 1.6-2.6 1.2zm17.1 13.1c-.7-.9-.4-2.2.5-2.9l3-2.1c.9-.7 2.2-.4 2.9.5.7.9.4 2.2-.5 2.9l-3 2.1c-1 .6-2.2.4-2.9-.5zm6.4 20.5c0-1.1.9-2.1 2.1-2h3.6c1.1 0 2.1.9 2 2.1 0 1.1-.9 2.1-2.1 2h-3.6c-1.1 0-2-1-2-2.1zm-6.7 20.4c.7-.9 1.9-1.1 2.9-.5l2.9 2.1c.9.7 1.1 1.9.5 2.9-.7.9-1.9 1.1-2.9.5l-2.9-2.1c-.9-.7-1.2-1.9-.5-2.9zm-17.3 12.8c1.1-.4 2.2.2 2.6 1.3l1.2 3.4c.4 1.1-.2 2.2-1.3 2.6-1.1.4-2.2-.2-2.6-1.3l-1.2-3.4c-.3-1 .3-2.2 1.3-2.6zm-21.5.5c1.1.3 1.7 1.5 1.4 2.6l-1 3.5c-.3 1.1-1.5 1.7-2.6 1.4-1.1-.3-1.7-1.5-1.4-2.6l1-3.5c.4-1.1 1.5-1.7 2.6-1.4zM129 523.3c.7.9.5 2.2-.3 2.9l-2.8 2.2c-.9.7-2.2.5-2.9-.3-.7-.9-.5-2.2.3-2.9l2.8-2.2c.9-.7 2.2-.6 2.9.3zm-7.5-20.1c.1 1.1-.8 2.1-2 2.2l-3.6.2c-1.1.1-2.1-.8-2.2-2-.1-1.1.8-2.1 2-2.2l3.6-.2c1.2-.1 2.2.8 2.2 2zm5.5-20.8c-.6 1-1.9 1.2-2.8.6l-3.1-1.9c-1-.6-1.2-1.9-.6-2.8.6-1 1.9-1.2 2.8-.6l3.1 1.9c1 .5 1.3 1.8.6 2.8zm16.6-13.8c-1.1.4-2.3-.1-2.7-1.1l-1.4-3.4c-.4-1.1.1-2.3 1.1-2.7 1.1-.4 2.3.1 2.7 1.1l1.4 3.4c.4 1.1-.1 2.3-1.1 2.7z"/>
  <path fill="#E38C2B" d="M165.8 523.9c-.5 0-.9-.1-1.4-.2l-21.3-7.6c-1.2-.4-2.1-1.4-2.5-2.6-.4-1.2-.2-2.5.5-3.5l20.3-30.5c1.2-1.9 3.8-2.4 5.7-1.1 1.9 1.2 2.4 3.8 1.1 5.7l-17.4 26.2 16.4 5.9c2.1.8 3.2 3.1 2.5 5.2-.7 1.5-2.2 2.5-3.9 2.5z"/>
  <path fill="#E38C2B" d="M147.2 502.1c-2 0-3.7-1.4-4-3.4-.4-2.2 1.1-4.3 3.4-4.7l19.8-3.3c2.2-.4 4.3 1.1 4.7 3.4.4 2.2-1.1 4.3-3.4 4.7l-19.8 3.3h-.7z"/>
  <path fill="#C2CED4" d="M168 129.8h-8.2v-15.1c0-3.9-3.1-7-7-7s-7 3.1-7 7v15.1h-8.2v-15.1c0-8.4 6.8-15.2 15.2-15.2s15.2 6.8 15.2 15.2v15.1z"/>
  <path fill="#FF8BA9" d="M173.8 158.9h-41.9V135c0-5.1 4.2-9.3 9.3-9.3h23.3c5.1 0 9.3 4.2 9.3 9.3v23.9z"/>
  <circle fill="#FFF" cx="152.8" cy="137.8" r="5.1"/>
  <path fill="#FFF" d="M157.2 151.2h-8.6l2-10.5h4.6z"/>
  <path fill="#C2CED4" d="M118.3 158H102c-2.3 0-4.1-1.8-4.1-4.1s1.8-4.1 4.1-4.1h16.4c2.3 0 4.1 1.8 4.1 4.1-.1 2.3-1.9 4.1-4.2 4.1zm33.9 16.6H102c-2.3 0-4.1-1.8-4.1-4.1s1.8-4.1 4.1-4.1h50.3c2.3 0 4.1 1.8 4.1 4.1s-1.9 4.1-4.2 4.1zm-25.1 16.3H102c-2.3 0-4.1-1.8-4.1-4.1s1.8-4.1 4.1-4.1h25.2c2.3 0 4.1 1.8 4.1 4.1-.1 2.2-1.9 4.1-4.2 4.1z"/>
  <path fill="#FF8BA9" d="M326.2 88h17.2v17.2h-17.2z"/>
  <path fill="#ACC6DE" d="M294.9 88h17.2v17.2h-17.2zm-31.3 0h17.2v17.2h-17.2zm387.1 478h-105v-75.5c0-5.8 4.7-10.6 10.6-10.6h83.8c5.8 0 10.6 4.7 10.6 10.6V566z"/>
  <circle fill="#FFF" cx="598.2" cy="524" r="24.5"/>
  <path fill="#FF8BA9" d="M580.8 518.4h34.3v11.2h-34.3z"/>
  <path fill="#D2E0ED" d="M640.1 479.9h-83.8c-5.8 0-10.6 4.7-10.6 10.6v3.3h104.9v-3.3c.1-5.9-4.7-10.6-10.5-10.6z"/>
  <circle fill="#FF8BA9" cx="556.4" cy="487.3" r="3.1"/>
  <circle fill="#FFF" cx="566.2" cy="487.3" r="3.1"/>
  <circle fill="#FFF" cx="576" cy="487.3" r="3.1"/>
  <path fill="#FF8BA9" d="M545.7 561.3h104.9v4.7H545.7z"/>
  <path fill="#FFF" d="M569.8 506.7h-14.2c-1.5 0-2.7-1.2-2.7-2.7s1.2-2.7 2.7-2.7h14.2c1.5 0 2.7 1.2 2.7 2.7s-1.2 2.7-2.7 2.7zm63.6 35.1h-5.8c-1.5 0-2.7-1.2-2.7-2.7s1.2-2.7 2.7-2.7h5.8c1.5 0 2.7 1.2 2.7 2.7s-1.2 2.7-2.7 2.7zm9.8 9.4h-15.7c-1.5 0-2.7-1.2-2.7-2.7s1.2-2.7 2.7-2.7h15.7c1.5 0 2.7 1.2 2.7 2.7s-1.2 2.7-2.7 2.7z"/>
  <path fill="#C2CED4" d="M159.4 368.5c-3 0-5.4-2.4-5.4-5.4v-84.2c0-3 2.4-5.4 5.4-5.4 3 0 5.4 2.4 5.4 5.4V363c0 3-2.4 5.5-5.4 5.5zm72.8 97h-24.7c-1.8 0-3.4-.9-4.4-2.3-9.4-13.2-29.6-21.1-43.8-21.1-3 0-5.4-2.4-5.4-5.4v-13c0-3 2.4-5.4 5.4-5.4 3 0 5.4 2.4 5.4 5.4v7.8c15.3 1.6 34.5 9.5 45.5 23.1h22c3 0 5.4 2.4 5.4 5.4s-2.3 5.5-5.4 5.5zm181.7 0H337c-3 0-5.4-2.4-5.4-5.4s2.4-5.4 5.4-5.4h76.9c3 0 5.4 2.4 5.4 5.4s-2.4 5.4-5.4 5.4z"/>
  <path fill="#FF8BA9" d="M159.4 410.9c-9.7 0-17.6-7.9-17.6-17.6 0-9.7 7.9-17.6 17.6-17.6 9.7 0 17.6 7.9 17.6 17.6 0 9.8-7.9 17.6-17.6 17.6zm0-28.4c-6 0-10.8 4.8-10.8 10.8s4.8 10.8 10.8 10.8 10.8-4.8 10.8-10.8-4.9-10.8-10.8-10.8zm104.9 83H252c-3 0-5.4-2.4-5.4-5.4s2.4-5.4 5.4-5.4h12.3c3 0 5.4 2.4 5.4 5.4s-2.4 5.4-5.4 5.4zm55.9 0H308c-3 0-5.4-2.4-5.4-5.4s2.4-5.4 5.4-5.4h12.3c3 0 5.4 2.4 5.4 5.4s-2.5 5.4-5.5 5.4z"/>
  <circle fill="#FF8BA9" cx="85.1" cy="393.6" r="14.1"/>
  <circle fill="#FF8BA9" cx="706.6" cy="47.6" r="10.6"/>
  <circle fill="#FF8BA9" cx="894.5" cy="312.6" r="10.1"/>
  <g fill="#ACC6DE">
    <circle cx="856.7" cy="131.6" r="5.7"/>
    <circle cx="838.8" cy="131.6" r="5.7"/>
    <circle cx="820.9" cy="131.6" r="5.7"/>
  </g>
  <path fill="#ACC6DE" d="M862.225 256.689l18.597 18.597-18.597 18.596-18.596-18.596zM269.332 27.237l15.98 15.98-15.98 15.981-15.98-15.98z"/>
  <path fill="#C2CED4" d="M931.1 283.3h-.4c-1.7-.1-3.3-.9-4.4-2.2l-12.6-15.4c-2.1-2.6-1.8-6.5.9-8.6 2.6-2.1 6.5-1.8 8.6.9l8.4 10.3 9-8.7c2.4-2.3 6.3-2.3 8.7.2 2.3 2.4 2.3 6.3-.2 8.7l-13.8 13.3c-1.1.9-2.6 1.5-4.2 1.5zM574.3 45.8c-.7 0-1.5-.1-2.2-.4-3.2-1.2-4.7-4.8-3.5-7.9l5.1-13.2-12.7-3.8c-3.2-1-5.1-4.4-4.1-7.6 1-3.2 4.4-5.1 7.6-4.1l19.1 5.7c1.6.5 3 1.6 3.8 3.2.8 1.5.8 3.3.2 4.9L580 41.9c-.9 2.4-3.2 3.9-5.7 3.9zM99.9 97.1h-.3c-3.4-.2-6-3-5.8-6.4l.7-14.1-13.3.4c-3.4 0-6.2-2.6-6.3-6-.1-3.4 2.6-6.2 5.9-6.3l19.9-.6c1.7-.1 3.4.6 4.6 1.8 1.2 1.2 1.8 2.9 1.7 4.6l-1 20.7c-.2 3.3-2.9 5.9-6.1 5.9z"/>
  <path fill="#FF8BA9" d="M137.3 347.4h-33.4v-19.3h33.4l-8.1 9.6zm-49.1-53.8c-4.4 0-8-3.6-8-8s3.6-8 8-8 8 3.6 8 8c.1 4.4-3.5 8-8 8zm0-11.9c-2.2 0-3.9 1.8-3.9 3.9 0 2.2 1.8 3.9 3.9 3.9s3.9-1.8 3.9-3.9c.1-2.2-1.7-3.9-3.9-3.9zm17.8 34c-4.4 0-8-3.6-8-8s3.6-8 8-8 8 3.6 8 8-3.6 8-8 8zm0-12c-2.2 0-3.9 1.8-3.9 3.9 0 2.2 1.8 3.9 3.9 3.9 2.2 0 3.9-1.8 3.9-3.9 0-2.1-1.7-3.9-3.9-3.9zm-20.4 11.5c-.4 0-.8-.1-1.1-.3-.9-.6-1.2-1.9-.6-2.8l22.6-33.6c.6-.9 1.9-1.2 2.8-.6.9.6 1.2 1.9.6 2.8l-22.6 33.6c-.4.5-1.1.9-1.7.9z"/>
  <path fill="#ACC6DE" d="M79 318.8h37.8v21.8H79zm213.2 155.7h-10.4c-3.1 0-5.7-2.5-5.7-5.7v-17.7c0-3.1 2.5-5.7 5.7-5.7h10.4c3.1 0 5.7 2.5 5.7 5.7v17.7c-.1 3.2-2.6 5.7-5.7 5.7z"/>
</svg>
