<?xml version="1.0" encoding="utf-8"?>
<!-- Generator: Adobe Illustrator 16.0.4, SVG Export Plug-In . SVG Version: 6.00 Build 0)  -->
<!DOCTYPE svg PUBLIC "-//W3C//DTD SVG 1.1//EN" "http://www.w3.org/Graphics/SVG/1.1/DTD/svg11.dtd">
<svg version="1.1" id="Layer_1" xmlns="http://www.w3.org/2000/svg"  x="0px" y="0px"
	 width="913px" height="628.8px" viewBox="0 0 913 628.8" enable-background="new 0 0 913 628.8" xml:space="preserve">
<path fill-rule="evenodd" clip-rule="evenodd" fill="#A7C0BA" d="M706,48.1c101.7,43.6,178.8,147,186.4,264.2
	c0.2,2.6,0.3,5.2,0.4,7.8c-6.6-59.2-30.8-114.4-66.8-159.5C795.6,114,754.1,74.7,706,48.1z"/>
<path fill-rule="evenodd" clip-rule="evenodd" fill="#A7C0BA" d="M493.7,33.1c246.7,0,415.9,194.8,378,435.1
	c-5.8,36.5-16,72-30,105.8h-34.8c14-33.9,24.3-69.3,30-105.8C874,233.5,713.3,42.2,475.8,33.5C481.8,33.2,487.7,33.1,493.7,33.1z"/>
<path fill-rule="evenodd" clip-rule="evenodd" fill="#A7C0BA" d="M526.7,110.3c207,0,349,163.5,317.2,365.1
	c-4.8,30.6-13.4,60.4-25.2,88.8H90.4c-7.5-30-10.8-61.9-9.1-95.3c9.7-194.6,182.4-363.1,385.7-376.1c3.5-0.2,7-0.4,10.5-0.5
	c-155,17.2-289.5,124.2-343.1,262C208.2,212.2,363.2,110.3,526.7,110.3z"/>
<path fill-rule="evenodd" clip-rule="evenodd" fill="#92AEA5" d="M632.6,564.3H90.5c-6.2-24.6-9.5-50.6-9.5-77.5
	C100,382.9,217.2,303,358.9,303c155,0,280.7,95.6,280.7,213.5C639.7,533,637.2,548.9,632.6,564.3z"/>
<path fill-rule="evenodd" clip-rule="evenodd" fill="#408DA3" d="M455.7,546.2c194.5,5.2,360.6,20.5,425.9,37.4l0.9-10.8l28.8,0.8
	c2.7,6.8,2.3,19.6-0.9,27.8c-15.5,20.7-213.2,32-454.7,25.6C204,620.2,0,596.7,0,574.4C0,552,204,539.4,455.7,546.2z"/>
<path fill-rule="evenodd" clip-rule="evenodd" fill="#4D9FB8" d="M455.7,614.8c251,0,455.7-18.2,455.7-40.4
	c0-22.3-204.7-40.4-455.7-40.4C204.7,534,0,552.1,0,574.4C0,596.6,204.7,614.8,455.7,614.8z"/>
<path fill-rule="evenodd" clip-rule="evenodd" fill="#FF6057" d="M455.7,591.2c206.1,0,374.2-13.5,374.2-30
	c0-16.5-168.1-30-374.2-30c-206.1,0-374.2,13.5-374.2,30C81.4,577.7,249.6,591.2,455.7,591.2z"/>
<path fill-rule="evenodd" clip-rule="evenodd" fill="#FFCE57" d="M417.8,582.5c135.2,0,245.5-11.5,245.5-25.6
	c0-14.1-110.3-25.6-245.5-25.6c-135.2,0-245.5,11.5-245.5,25.6C172.3,571,282.6,582.5,417.8,582.5z"/>
<polygon fill-rule="evenodd" clip-rule="evenodd" fill="#AF8E85" points="586.3,331.5 601,399.6 652.2,377.1 "/>
<path fill-rule="evenodd" clip-rule="evenodd" fill="#FF6D30" d="M759.7,511c-20.5-7.7-12.3-39,30.7-22.9
	c16.1,6,25.8,15.7,21.6,21.6c-3.2,4.5-19.9,1-36.1-1.1C770.9,507.9,763.5,512.4,759.7,511z"/>
<path fill-rule="evenodd" clip-rule="evenodd" fill="#FF6D30" d="M769.2,481.8c6.3,4.1,8.1,11.5,4,16.5c-4.1,5-12.6,5.7-18.9,1.6
	c-0.1-0.1-47.5-30.7-89.5-81.2c-4.6-5.5-3.5-12.7,2.5-16c6-3.3,14.5-1.6,19.1,4C725.5,453.6,769,481.7,769.2,481.8z"/>
<path fill-rule="evenodd" clip-rule="evenodd" fill="#FF6D30" d="M759.9,502.1c-2-0.4-3.9-1.2-5.7-2.3c-0.1-0.1-47.5-30.7-89.5-81.2
	c-3.2-3.9-3.6-8.5-1.6-12.1c3.5,0.7,6.7,2.5,9,5.3c39.2,47,82.7,75.1,82.8,75.2C760.8,490.8,762.8,497.2,759.9,502.1z"/>
<path fill-rule="evenodd" clip-rule="evenodd" fill="#FFFFFF" d="M744.7,456.3c9.1,6.9,10.7,18.2,3.6,25.2c-7.1,7-20.1,7.1-29.2,0.2
	c-0.2-0.1-68-51.5-124.7-132.2c-6.2-8.8-3.4-19.5,6.3-23.8c9.7-4.3,22.5-0.7,28.7,8.1C682.1,409,744.5,456.2,744.7,456.3z"/>
<path fill-rule="evenodd" clip-rule="evenodd" fill="#FFEAE1" d="M744.7,456.3c9.1,6.9,10.7,18.2,3.6,25.2c-2.1,2.1-4.7,3.5-7.6,4.4
	c-0.6-0.4-1.3-0.8-1.9-1.3c-0.2-0.2-68-51.5-124.7-132.2c-6.2-8.8-3.4-19.5,6.3-23.8c0.8-0.4,1.6-0.7,2.4-0.9
	c2.6,1.6,4.8,3.7,6.6,6.1C682.1,409,744.5,456.2,744.7,456.3z"/>
<path fill-rule="evenodd" clip-rule="evenodd" fill="#FFFFFF" d="M610,343.9l38.7,44.1c0,0,19.9-10.4,20.9-34.7
	c-14.2-0.9-27.9-4.4-40.5-18.7L610,343.9z"/>
<path fill-rule="evenodd" clip-rule="evenodd" fill="#FF9939" d="M175.2,156.5L175.2,156.5c4.5,0,8.4,3.7,8.6,8.2l0.3,6.3
	c0.2,4.5-3.3,8.2-7.8,8.2l0,0c-4.5,0-8.3-3.7-8.6-8.2l-0.3-6.3C167.2,160.1,170.7,156.5,175.2,156.5z"/>
<path fill-rule="evenodd" clip-rule="evenodd" fill="#4875A1" d="M171.8,163L171.8,163c4.5,0,8.4,3.7,8.6,8.2l0.3,6.3
	c0.2,4.5-3.3,8.2-7.8,8.2l0,0c-4.5,0-8.3-3.7-8.6-8.2l-0.3-6.3C163.9,166.7,167.4,163,171.8,163z"/>
<path fill-rule="evenodd" clip-rule="evenodd" fill="#FF6D30" d="M426,309.6c-7.5-28.7,27.8-34.2,43.4,25.9
	c5.9,22.6,3.7,39.1-4.8,37C456.1,370.3,431.9,332.1,426,309.6z"/>
<path fill-rule="evenodd" clip-rule="evenodd" fill="#FF9939" d="M437.3,310c-0.8-29.9,43-32.9,44.8,29.6
	c0.7,23.5-6.6,40.2-16.3,37.4C456.2,374.2,437.9,333.5,437.3,310z"/>
<path fill-rule="evenodd" clip-rule="evenodd" fill="#AF8E85" d="M571.7,242.6c0,0,28.1-7.6,38,0.3l-15.6,21L571.7,242.6z"/>
<path fill-rule="evenodd" clip-rule="evenodd" fill="#FFEAE1" d="M675.3,357.7l2.6-52.4c0.4-8.8,8-15.7,16.8-15.2l0,0
	c8.8,0.4,15.7,8,15.2,16.8l-2.6,52.4c-0.4,8.8-8,15.7-16.8,15.2l0,0C681.7,374.1,674.9,366.5,675.3,357.7z"/>
<path fill-rule="evenodd" clip-rule="evenodd" fill="#211910" d="M619.5,345.3c0,0,13.2,5.8,31-0.2l7.2-12.4l-34.9,9.9L619.5,345.3z
	"/>
<path fill-rule="evenodd" clip-rule="evenodd" fill="#FFFEF5" d="M337.1,547.3c2.6-1.5,44.1-30.8,44.1-30.8l-11.4,16.7l91.5-47.1
	l-71.4,55.5l65.5-21.3l-13.5,15.6l28.6-6.5l-40.7,14.8l5.4-10.6l-69.4,22.8l12.2-16.9l-23,11.6l5-13.9L337.1,547.3z"/>
<path fill-rule="evenodd" clip-rule="evenodd" fill="#E7C2B9" d="M646,279.6c6.3-11.2,20.4-15.2,31.6-8.9s15.2,20.4,8.9,31.6
	c-0.1,0.1-26.2,47.6-84.9,45.1c-12.8-0.5-22.7-11.3-22.2-24.1c0.5-12.8,11.3-22.7,24.1-22.2C633.5,302.3,646,279.6,646,279.6z"/>
<path fill-rule="evenodd" clip-rule="evenodd" fill="#FFFFFF" d="M675.1,249.9c6.8-14.6,22.4-20.1,34.9-12.2
	c12.5,7.9,17.1,26.2,10.4,40.9c-0.1,0.2-28.4,62.4-93.5,60.2c-14.2-0.4-25.4-14.3-25-30.9c0.4-16.6,12.2-29.8,26.4-29.3
	C661.5,279.8,675,250,675.1,249.9z"/>
<path fill-rule="evenodd" clip-rule="evenodd" fill="#FFEAE1" d="M675.1,249.9c6.7-14.6,22.2-20,34.7-12.3
	c7.6,9.2,9.7,23.5,4.2,35.4c-0.1,0.2-28.4,62.4-93.5,60.2c-4.1-0.1-7.9-1.4-11.3-3.5c-4.7-5.6-7.5-13.4-7.3-21.8
	c0.4-16.6,12.2-29.8,26.4-29.3C661.5,279.8,675,250,675.1,249.9z"/>
<path fill-rule="evenodd" clip-rule="evenodd" fill="#FF9939" d="M666.9,265.2c4.5-11,17.2-16.3,28.2-11.8
	c11,4.5,16.3,17.2,11.8,28.2c-0.1,0.1-19,47-73.6,51.2c-11.9,0.9-22.3-7.9-23.2-19.8c-0.9-11.9,7.9-22.3,19.8-23.2
	C657.8,287.6,666.9,265.2,666.9,265.2z"/>
<path fill-rule="evenodd" clip-rule="evenodd" fill="#FF6D30" d="M666.9,265.2c4.6-11,17.2-16.3,28.2-11.8c1.7,0.7,3.3,1.6,4.7,2.6
	c2.2,5.2,2.5,11.2,0.2,16.8c-0.1,0.1-19,47-73.6,51.2c-5.4,0.4-10.6-1.2-14.6-4.2c-0.9-2.1-1.5-4.4-1.7-6.9
	c-0.9-11.9,7.9-22.3,19.8-23.2C657.8,287.6,666.9,265.2,666.9,265.2z"/>
<path fill-rule="evenodd" clip-rule="evenodd" fill="#FF6D30" d="M708.7,228.6L708.7,228.6c5,2.8,6.8,9.1,4,14.1L700,265.3
	c-2.8,5-9.1,6.8-14.1,4h0c-5-2.8-6.8-9.1-4-14.1l12.7-22.6C697.4,227.6,703.8,225.8,708.7,228.6z"/>
<path fill-rule="evenodd" clip-rule="evenodd" fill="#E5541A" d="M708.7,228.6L708.7,228.6c5,2.8,6.8,9.1,4,14.1l-1.2,2.2
	c-4.6,4.6-11.1,7.3-18.1,6.7l-6.6-0.6c-0.5-0.6-1-1.3-1.4-1.9l9.2-16.5C697.4,227.6,703.8,225.8,708.7,228.6z"/>
<path fill-rule="evenodd" clip-rule="evenodd" fill="#51443B" d="M676.8,195.8c0,0,0.1,13.4,12.8,21.7l3.5-15.9L676.8,195.8z"/>
<path fill-rule="evenodd" clip-rule="evenodd" fill="#FF9939" d="M697.3,188.6l16.1,1.4c8,0.7,14,7.8,13.3,15.8l-1.6,19.2
	c-1.1,12.5-12.1,21.8-24.6,20.7l-8.1-0.7c-8-0.7-14-7.8-13.3-15.8l2.3-27.2C682.2,193.9,689.3,187.9,697.3,188.6z"/>
<path fill-rule="evenodd" clip-rule="evenodd" fill="#FF6D30" d="M709,189.6l4.5,0.4c8,0.7,14,7.8,13.3,15.8l-1.6,19.2
	c-1.1,12.5-12.1,21.8-24.6,20.7l-6.6-0.6c-2.7-3.1-4.1-6.9-3.8-10.9l2.6-30.1C693.4,196.4,700.3,190.5,709,189.6z"/>
<path fill-rule="evenodd" clip-rule="evenodd" fill="#352B22" d="M685.5,210.8L685.5,210.8c1,0.1,1.8,1,1.7,2l-0.1,0.9
	c-0.1,1-1,1.8-2,1.7l0,0c-1-0.1-1.8-1-1.7-2l0.1-0.9C683.6,211.5,684.5,210.7,685.5,210.8z"/>
<path fill-rule="evenodd" clip-rule="evenodd" fill="#352B22" d="M683,207.9l5.2,2.4c1.1,0.5,1.6,1.8,1.1,2.9v0
	c-0.5,1.1-1.8,1.6-2.9,1.1l-5.2-2.4c-1.1-0.5-1.6-1.8-1.1-2.9v0C680.6,207.9,681.9,207.4,683,207.9z"/>
<path fill-rule="evenodd" clip-rule="evenodd" fill="#352B22" d="M704.3,212.4L704.3,212.4c1,0.1,1.8,1,1.7,2l-0.1,0.9
	c-0.1,1-1,1.8-2,1.7l0,0c-1-0.1-1.8-1-1.7-2l0.1-0.9C702.4,213.1,703.3,212.4,704.3,212.4z"/>
<path fill-rule="evenodd" clip-rule="evenodd" fill="#352B22" d="M701.1,210.9l8.9-2c1.2-0.3,2.3,0.5,2.6,1.6l0,0
	c0.3,1.2-0.5,2.3-1.6,2.6l-8.9,2c-1.2,0.3-2.3-0.5-2.6-1.6l0,0C699.2,212.3,700,211.2,701.1,210.9z"/>
<path fill-rule="evenodd" clip-rule="evenodd" fill="#3A3229" d="M674.5,183c0,0,1.6,4.4,6.3,9.8h0l-20.8-9.1c0,0,11.1,15.6,33,22.7
	c0,0,22.7-8,24.6,6.2c2.7,0.5,5.5,0.9,8.4,1.1c0,0,9-9.1,5.4-23.4l-3.6,3.9l2.1-9.5l-4.6,5.1C725.3,189.7,702.5,172.7,674.5,183z"/>
<path fill-rule="evenodd" clip-rule="evenodd" fill="#352B22" d="M693,206.3c0,0,22.7-8,24.6,6.2c2.7,0.5,5.5,0.9,8.4,1.1
	c0,0,9-9.1,5.4-23.4l-3.6,3.9l2.1-9.5l-4.6,5.1c0,0-14.6-10.9-34.9-9.9l1.9,11l3.9-5.1l-0.2,11.2l4.4-3.4L693,206.3z"/>
<path fill-rule="evenodd" clip-rule="evenodd" fill="#FF6D30" d="M725.4,211c3.2-0.3,5.3,2,4.7,5.2c-0.6,3.2-3.7,6-6.9,6.4
	c-3.2,0.3-5.3-2-4.7-5.2C719.1,214.2,722.1,211.3,725.4,211z"/>
<path fill-rule="evenodd" clip-rule="evenodd" fill="#E5541A" d="M724.9,213.7c1.7-0.2,2.9,1.1,2.5,2.8c-0.3,1.3-1.3,2.6-2.6,3.1
	c0.6-0.6,1-1.4,1.2-2.2c0.3-1.7-0.8-3-2.5-2.8c-0.4,0-0.8,0.1-1.1,0.3C723,214.2,723.9,213.7,724.9,213.7z"/>
<path fill-rule="evenodd" clip-rule="evenodd" fill="#812C23" d="M695.4,224.6l6.2,0.5c2.1,0.2,4.2,2.1,4.7,4.2v0
	c0.5,2.1-0.8,3.7-2.8,3.6l-6.2-0.5c-2.1-0.2-4.2-2.1-4.7-4.2v0C692,226,693.3,224.4,695.4,224.6z"/>
<path fill-rule="evenodd" clip-rule="evenodd" fill="#FF6057" d="M705.1,229.4c0.2,1.4-0.7,2.5-2.1,2.3l-4.4-0.4
	c-0.4,0-0.7-0.1-1-0.3c-0.2-1.4,0.7-2.5,2.1-2.3l4.4,0.4C704.4,229.2,704.7,229.3,705.1,229.4z"/>
<path fill-rule="evenodd" clip-rule="evenodd" fill="#FFFEF5" d="M695.4,224.6l6.2,0.5c1.5,0.1,3,1.1,3.9,2.4
	c-0.5,0.2-1,0.4-1.7,0.3l-6.2-0.5c-1.5-0.1-3-1.1-3.9-2.4C694.2,224.7,694.8,224.6,695.4,224.6z"/>
<path fill-rule="evenodd" clip-rule="evenodd" fill="#FFFFFF" d="M636.4,243.4c4.5-15.1,20.3-23.8,35.5-19.3
	c15.1,4.5,23.8,20.3,19.3,35.5c-0.1,0.2-18.5,64.4-89.7,77.5c-14.5,2.7-28.5-6.1-32.6-19.9c0.7-0.1,1.4-0.3,2.1-0.4
	c47.2-9.2,30-38.5,30-38.5l0,0C629.3,268.4,636.4,243.4,636.4,243.4z"/>
<path fill-rule="evenodd" clip-rule="evenodd" fill="#211910" d="M560.9,421c0,0,59-21.6,64.3-79.9l-3.9-3.5c0,0,0.8,46.9-63.5,67.3
	L560.9,421z"/>
<path fill-rule="evenodd" clip-rule="evenodd" fill="#FFFFFF" d="M428.2,152.2c-10.4-9.5-4.1-36.4,5.3-46.8
	c9.5-10.4,25.5-11.1,35.9-1.7c0.2,0.2,77.9,70.7,138.7,183.7c6.7,12.4,2,27.8-10.3,34.4c-12.4,6.6-27.8,2-34.4-10.3
	C506.8,206.4,428.4,152.4,428.2,152.2z"/>
<path fill-rule="evenodd" clip-rule="evenodd" fill="#FFEAE1" d="M426.2,151.7c-9.4-8.6-1.9-33,5-43.3c6.9-0.7,14.1,1.4,19.7,6.5
	c0.2,0.2,77.9,70.7,138.7,183.7c4.6,8.6,3.8,18.6-1.3,26.2c-9.9,1-19.9-3.9-24.9-13.3C506.8,206.4,426.5,154.3,426.2,151.7z"/>
<path fill-rule="evenodd" clip-rule="evenodd" fill="#4C4239" d="M461.1,99.6c9.5,6.2,10.8,22.9,2.9,37.3
	c-7.9,14.4-22,20.9-31.5,14.7c-9.5-6.2-10.8-22.9-2.9-37.3C437.5,100,451.6,93.4,461.1,99.6z"/>
<path fill-rule="evenodd" clip-rule="evenodd" fill="#211910" d="M461.1,99.6c9.5,6.2,10.8,22.9,2.9,37.3
	c-5.4,9.7-13.6,15.9-21.2,16.9c-1.2-0.4-2.4-0.9-3.5-1.7c-9.5-6.2-10.8-22.9-2.9-37.3c5.4-9.7,13.6-15.9,21.2-16.9
	C458.8,98.3,459.9,98.9,461.1,99.6z"/>
<path fill-rule="evenodd" clip-rule="evenodd" fill="#FF9939" d="M410.7,83.8L410.7,83.8c5.6-6.1,15.1-6.5,21.2-1l28.8,26.2
	c6.1,5.6,6.5,15.1,1,21.2l0,0c-5.6,6.1-15.1,6.5-21.2,1L411.6,105C405.5,99.4,405.1,89.9,410.7,83.8z"/>
<path fill-rule="evenodd" clip-rule="evenodd" fill="#FF6D30" d="M429.9,81.3c0.7,0.4,1.3,0.9,2,1.5l28.8,26.3
	c6.1,5.6,6.5,15.1,1,21.2l0,0c-0.2,0.2-0.3,0.4-0.5,0.5c-0.7-0.4-1.3-0.9-2-1.5L430.3,103c-6.1-5.6-6.5-15.1-1-21.2l0,0
	C429.5,81.7,429.7,81.5,429.9,81.3z"/>
<path fill-rule="evenodd" clip-rule="evenodd" fill="#FF6D30" d="M486.3,83.5c25.7,14.3,16.7,52.1-37,22.2
	c-8.1-4.5-14.9-9.5-19.8-14.3l32.9-16.8C471.2,76.8,479.8,79.8,486.3,83.5z"/>
<path fill-rule="evenodd" clip-rule="evenodd" fill="#FF9939" d="M470.8,72.7c33.4,4.9,39.1,49.3-30.7,38.9
	c-26.3-3.9-45.4-14.4-42.8-23.5C399.9,79.1,444.6,68.8,470.8,72.7z"/>
<ellipse transform="matrix(0.1804 -0.9836 0.9836 0.1804 288.1664 544.1259)" fill-rule="evenodd" clip-rule="evenodd" fill="#FFAC5C" cx="470.6" cy="99.2" rx="8.8" ry="15"/>
<path fill-rule="evenodd" clip-rule="evenodd" fill="#FFAC5C" d="M411.4,77.4c9.3-1.7,18.1,1.6,19.6,7.3c1.5,5.7-4.8,11.7-14.1,13.4
	c-9.3,1.7-18.1-1.6-19.6-7.3C395.8,85.1,402.1,79.1,411.4,77.4z"/>
<ellipse transform="matrix(8.556627e-02 -0.9963 0.9963 8.556627e-02 228.1294 931.3405)" fill-rule="evenodd" clip-rule="evenodd" fill="#3A3229" cx="621.4" cy="341.4" rx="5.8" ry="10.5"/>
<path fill-rule="evenodd" clip-rule="evenodd" fill="#FF9939" d="M708.6,365.9l26.5-39.2c4.5-6.6,2.7-15.6-3.9-20.1l0,0
	c-6.6-4.5-15.6-2.7-20.1,3.9l-26.5,39.2c-4.5,6.6-2.7,15.6,3.9,20.1l0,0C695.1,374.3,704.2,372.5,708.6,365.9z"/>
<path fill-rule="evenodd" clip-rule="evenodd" fill="#FF6D30" d="M724.8,304.2c-5.2-0.6-10.5,1.7-13.6,6.3l-26.5,39.2
	c-3,4.5-3.2,10-1,14.5c5.2,0.6,10.5-1.7,13.6-6.3l26.5-39.2C726.8,314.3,727,308.7,724.8,304.2z"/>
<path fill-rule="evenodd" clip-rule="evenodd" fill="#FFFFFF" d="M593.9,312.2l-35.7-53.9c0,0,36.4,2.6,51.6-15.4
	c0,0-11.3,41.3,12,58.1L593.9,312.2z"/>
<path fill-rule="evenodd" clip-rule="evenodd" fill="#E7C2B9" d="M646.8,245.7c2.7-6.1,7.2-10.9,12.7-13.8c7.5,0.5,13.9,6.3,14.8,14
	v0c1.1,8.8-5.2,16.8-13.9,17.9l-33.4,4.2C641.3,258.7,646.7,245.8,646.8,245.7z"/>
<path fill-rule="evenodd" clip-rule="evenodd" fill="#FFEAE1" d="M613,230.6l52-6.5c8.8-1.1,16.8,5.2,17.9,13.9l0,0
	c1.1,8.7-5.2,16.8-13.9,17.9l-52,6.5c-8.8,1.1-16.8-5.2-17.9-13.9l0,0C598,239.7,604.3,231.6,613,230.6z"/>
<path fill-rule="evenodd" clip-rule="evenodd" fill="#FFFFFF" d="M617.9,230L617.9,230l36.1-4.5l0.1,0c6-0.7,11.5,3.6,12.3,9.7l0,0
	c0.8,6.1-3.6,11.6-9.6,12.4l-36,4.5c-6.1,0.8-11.6-3.6-12.4-9.6l0,0C607.5,236.3,611.8,230.7,617.9,230z"/>
<path fill-rule="evenodd" clip-rule="evenodd" fill="#FF9939" d="M712.4,304.3l0.6-14.1c0.2-4,3.6-7.2,7.6-7l6.5,0.3
	c7.3,0.3,13.1,6.5,12.8,13.9l-0.3,8.1L712.4,304.3z"/>
<path fill-rule="evenodd" clip-rule="evenodd" fill="#D6473E" d="M707.6,337l2.5,1.7c6.9,4.6,16.3,2.8,21-4.1l8.4-12.5l-27.6-18.6
	l-8.4,12.5C698.9,322.9,700.7,332.4,707.6,337z"/>
<path fill-rule="evenodd" clip-rule="evenodd" fill="#D6473E" d="M708.5,314.3l0.7-18.1c0.2-5.1,4.6-9.2,9.7-9l8.3,0.3
	c9.4,0.4,16.8,8.3,16.4,17.7l-0.4,10.3L708.5,314.3z"/>
<circle fill-rule="evenodd" clip-rule="evenodd" fill="#FF6057" cx="725.3" cy="312.9" r="18.1"/>
<path fill-rule="evenodd" clip-rule="evenodd" fill="#FF8980" d="M713,309.6c2.7,1.9,7.1,1.1,9.8-2c2.7-3,2.8-7,0.1-9
	c-2.7-1.9-7.1-1.1-9.8,2C710.3,303.6,710.3,307.6,713,309.6z"/>
<path fill-rule="evenodd" clip-rule="evenodd" fill="#E7C2B9" d="M337.2,401.3c0,0-25.5-1.6-36.1-16.9l30-21.3L337.2,401.3z"/>
<path fill-rule="evenodd" clip-rule="evenodd" fill="#FFFFFF" d="M285.9,478c-6.5,10.8,2.3,24,19.5,29.4c17.3,5.4,56.5,10.9,63,0.1
	c0.1-0.2,29-90.9,32.7-200.5c0.4-12-14.2-23-32.7-24.5c-18.5-1.5-33.7,7-34.1,19C330.9,403.5,286,477.8,285.9,478z"/>
<path fill-rule="evenodd" clip-rule="evenodd" fill="#EDD1C5" d="M285.9,478c-6.5,10.8,2.3,24,19.5,29.4c5.1,1.6,10.4,2.3,15.5,2.3
	c0.6-0.7,1.1-1.4,1.5-2.1c0.1-0.2,49-81,52.6-190.6c0.4-12-14.2-22.9-32.7-24.5c-1.5-0.1-3-0.2-4.4-0.2c-2.2,2.7-3.5,5.8-3.6,9.1
	C330.9,403.5,286,477.8,285.9,478z"/>
<path fill-rule="evenodd" clip-rule="evenodd" fill="#FFFFFF" d="M353.2,309.4l25.4,78c0,0-49.4-20.4-77.5-3c0,0,32.1-51,6.6-84.7
	L353.2,309.4z"/>
<path fill-rule="evenodd" clip-rule="evenodd" fill="#211910" d="M349,310.3c0,0-18.3,11.1-44.2,6.2l-11.3-16.3l50.6,7L349,310.3z"
	/>
<path fill-rule="evenodd" clip-rule="evenodd" fill="#FFEAE1" d="M213.6,273.7l20.5-70.3c3.6-12.4-3.4-25.8-15.7-29.9l0,0
	c-12.2-4.1-25.2,2.7-28.8,15l-20.5,70.3c-3.6,12.4,3.4,25.8,15.7,29.9l0,0C197,292.8,210,286,213.6,273.7z"/>
<path fill-rule="evenodd" clip-rule="evenodd" fill="#FFFFFF" d="M261.6,203.4c-10.8-17.9-33.7-24.3-51.1-14.4
	c-17.4,9.9-22.7,32.5-11.9,50.4c0.1,0.2,45.4,76.1,139,72.5c20.4-0.8,35.5-17.9,33.7-38.4c-1.8-20.4-19.7-36.4-40.1-35.6
	C283.2,239.8,261.6,203.5,261.6,203.4z"/>
<path fill-rule="evenodd" clip-rule="evenodd" fill="#FFEAE1" d="M308.1,188.2c-11.5-18.4-35.3-24.8-53.2-14.2
	c-17.9,10.6-23.2,34.1-11.7,52.6c0.1,0.2,48.2,78.5,145.4,73.3c21.2-1.1,36.6-19.2,34.5-40.4c-2.1-21.2-21-37.5-42.2-36.4
	C331.2,225.7,308.2,188.3,308.1,188.2z"/>
<path fill-rule="evenodd" clip-rule="evenodd" fill="#FF9939" d="M273.5,206.3c-7.5-15.8-26.1-23.2-41.6-16.5
	c-15.5,6.7-22,25-14.5,40.8c0.1,0.2,31.3,67.3,110.3,72.6c17.2,1.2,31.4-11.8,31.8-28.9c0.3-17.1-13.3-32-30.5-33.1
	C288.5,238.5,273.5,206.4,273.5,206.3z"/>
<path fill-rule="evenodd" clip-rule="evenodd" fill="#FF6D30" d="M273.5,206.3c-7.5-15.8-26.1-23.2-41.6-16.5
	c-2.4,1-4.6,2.3-6.5,3.9c-2.8,7.5-2.6,16.2,1.2,24.2c0.1,0.2,31.3,67.3,110.3,72.6c7.9,0.5,15.1-1.9,20.7-6.3
	c1.1-3.1,1.8-6.4,1.9-9.9c0.3-17.1-13.3-32-30.5-33.2C288.5,238.5,273.5,206.4,273.5,206.3z"/>
<path fill-rule="evenodd" clip-rule="evenodd" fill="#FF6D30" d="M210.2,154.3L210.2,154.3c-6.9,4.1-9.1,13-4.9,19.8l20.8,33.5
	c4.3,6.8,13.4,9.1,20.3,5l0,0c6.9-4.1,9.1-13,4.9-19.8l-20.8-33.5C226.3,152.4,217.1,150.2,210.2,154.3z"/>
<path fill-rule="evenodd" clip-rule="evenodd" fill="#E5541A" d="M210.2,154.3L210.2,154.3c-6.9,4.1-9,13.3-4.5,20.4l2,3.1
	c7,6.6,16.6,10.3,26.6,9.3l9.5-0.9c0.7-0.9,1.3-1.8,1.9-2.8l-14.7-23.6C226.4,152.6,217.1,150.2,210.2,154.3z"/>
<path fill-rule="evenodd" clip-rule="evenodd" fill="#FF9939" d="M232.2,96l-23.1,2.3c-11.5,1.1-19.5,11.4-17.8,22.8l4.1,28.1
	c2.6,17.7,19.3,30.8,37.1,29.1l11.6-1.1c11.5-1.1,19.5-11.4,17.8-22.8l-5.7-39.6C254.4,103.3,243.7,94.9,232.2,96z"/>
<path fill-rule="evenodd" clip-rule="evenodd" fill="#FF6D30" d="M215.5,97.6l-6.4,0.6c-11.5,1.1-19.5,11.5-17.8,23l4,27.6
	c2.6,17.9,19.3,31.1,37.1,29.4l9.5-0.9c3.6-4.5,5.3-10,4.5-15.8l-6.3-43.3C238.5,107.2,228,98.8,215.5,97.6z"/>
<path fill-rule="evenodd" clip-rule="evenodd" fill="#E5541A" d="M194.4,107.1c-2.6,4-3.9,9-3.1,14.2l4,27.6
	c1.8,12.5,10.6,22.8,21.8,27.2c0.5-2.2,0.6-4.6,0.2-6.9l-2.3-15.6c-3.4-4.8-6.3-10.8-7.9-17.4c-2-7.8-1.9-14.9-0.2-20
	C203.9,112.1,199.5,108.9,194.4,107.1z"/>
<path fill-rule="evenodd" clip-rule="evenodd" fill="#FFCE57" d="M214.8,95.4l-6.8,0.7c-12.2,1.2-20.7,12.2-19,24.5l1.7,11.7
	c3.8-1.7,12.8-6,20.8-10.7c10.5-6.2,13.2-19.7,13.2-19.7s-1-2.1-2.4-4.8C219.9,96.2,217.4,95.6,214.8,95.4z"/>
<path fill-rule="evenodd" clip-rule="evenodd" fill="#B75227" d="M251.1,127.8L251.1,127.8c-1.4,0.1-2.4,1.4-2.2,2.9l0.2,1.3
	c0.2,1.4,1.6,2.5,3,2.4h0c1.4-0.1,2.4-1.4,2.2-2.9l-0.2-1.3C253.8,128.8,252.5,127.7,251.1,127.8z"/>
<path fill-rule="evenodd" clip-rule="evenodd" fill="#FFCE57" d="M254.3,123.7l-7,3.4c-1.6,0.8-2.2,2.7-1.4,4.3v0
	c0.8,1.6,2.8,2.2,4.4,1.5l7-3.4c1.6-0.8,2.2-2.7,1.4-4.3l0,0C257.9,123.5,255.9,122.9,254.3,123.7z"/>
<path fill-rule="evenodd" clip-rule="evenodd" fill="#B75227" d="M224.1,130.5L224.1,130.5c-1.4,0.1-2.5,1.4-2.2,2.9l0.2,1.3
	c0.2,1.4,1.6,2.5,3,2.4h0c1.4-0.1,2.4-1.4,2.2-2.9l-0.2-1.3C226.9,131.4,225.5,130.3,224.1,130.5z"/>
<path fill-rule="evenodd" clip-rule="evenodd" fill="#FFCE57" d="M228.6,128.2l-13.1-2.7c-1.7-0.3-3.2,0.7-3.5,2.4l0,0
	c-0.3,1.7,0.9,3.3,2.5,3.7l13.1,2.7c1.7,0.3,3.2-0.7,3.5-2.4l0,0C231.4,130.2,230.3,128.6,228.6,128.2z"/>
<path fill-rule="evenodd" clip-rule="evenodd" fill="#E5541A" d="M193.1,128.1c-4.7-0.4-7.5,3-6.4,7.6c1.1,4.6,5.8,8.7,10.5,9.1
	s7.5-3,6.4-7.6C202.4,132.6,197.7,128.5,193.1,128.1z"/>
<path fill-rule="evenodd" clip-rule="evenodd" fill="#C44511" d="M194,132c-2.5-0.2-4,1.6-3.4,4.1c0.5,1.9,2.1,3.7,4,4.5
	c-0.9-0.9-1.6-1.9-1.9-3.1c-0.6-2.5,0.9-4.3,3.4-4.1c0.6,0,1.1,0.2,1.6,0.4C196.7,132.8,195.4,132.1,194,132z"/>
<path fill-rule="evenodd" clip-rule="evenodd" fill="#FFFFFF" d="M315.5,174.4c-7.7-21.7-31.3-33.9-52.7-27.3
	c-21.4,6.7-32.5,29.6-24.8,51.4c0.1,0.3,32.1,92.4,135.6,110.1c21.1,3.6,40.4-9.2,45.2-29.1c-1-0.2-2-0.3-3-0.5
	c-68.7-12.6-46.4-54.9-46.4-54.9l0,0C328,210.4,315.5,174.5,315.5,174.4z"/>
<path fill-rule="evenodd" clip-rule="evenodd" fill="#E5541A" d="M163.8,260.7l4.8-67.3c0.8-11.5,10.9-19.8,22.3-18.4l0,0
	c11.4,1.4,20.1,11.9,19.3,23.4l-4.8,67.3c-0.8,11.5-10.9,19.8-22.3,18.4h0C171.7,282.7,163,272.2,163.8,260.7z"/>
<path fill-rule="evenodd" clip-rule="evenodd" fill="#FF9939" d="M200.4,178.5c6.4,4.3,10.4,11.7,9.9,19.7l-4.9,67.7
	c-0.6,7.7-5.3,13.9-11.9,16.7c-6.4-4.3-10.4-11.7-9.9-19.7l4.9-67.7C189.1,187.5,193.8,181.3,200.4,178.5z"/>
<path fill-rule="evenodd" clip-rule="evenodd" fill="#E7C2B9" d="M300.8,178c-4.3-8.8-11.3-15.5-19.4-19.7
	c-10.7,0.9-19.4,9.3-20.2,20.4v0c-0.8,12.6,8.9,24.1,21.6,25.5l48.5,5.5C309.8,196.5,300.9,178.1,300.8,178z"/>
<path fill-rule="evenodd" clip-rule="evenodd" fill="#FFFFFF" d="M348.3,155.7l-75.9-8.6c-12.5-1.4-23.5,7.7-24.3,20.4l0,0
	c-0.8,12.6,8.8,24.1,21.3,25.5l75.9,8.6c12.5,1.4,23.5-7.7,24.3-20.4l0,0C370.5,168.5,360.9,157.1,348.3,155.7z"/>
<path fill-rule="evenodd" clip-rule="evenodd" fill="#EDD1C5" d="M252.8,183.2c3.9,5.3,9.9,9.1,16.8,9.8l75.4,8.5
	c12.7,1.4,23.7-7.7,24.5-20.3v0c0.1-0.9,0.1-1.7,0-2.5c-3.9-5.3-9.9-9.1-16.8-9.8l-75.4-8.5c-12.7-1.4-23.7,7.7-24.5,20.3v0
	C252.8,181.5,252.8,182.3,252.8,183.2z"/>
<path fill-rule="evenodd" clip-rule="evenodd" fill="#FF6D30" d="M332.2,165.1l-55.1,45.6c-10,8.3-11.3,23.2-3,33.1l0,0
	c8.4,9.9,23.4,11.3,33.4,3l55.1-45.6c10-8.3,11.3-23.2,2.9-33.1l0,0C357.3,158.1,342.2,156.8,332.2,165.1z"/>
<path fill-rule="evenodd" clip-rule="evenodd" fill="#FF9939" d="M333.1,164.4l-56.8,47c-5.4,4.5-8.1,11.2-7.8,17.9
	c0.2,2.7,0.8,5.4,1.8,7.9c5.8,0.3,11.6-1.4,16.3-5.3l60.4-50c6.4-5.3,9.1-13.4,8.1-21.2C347.7,158.1,339.3,159.2,333.1,164.4z"/>
<path fill-rule="evenodd" clip-rule="evenodd" fill="#4875A1" d="M327.8,204.9l-5-5.5c-8.9-9.7-24.1-10.3-33.8-1.5l-17.7,16
	l37.3,40.6l17.6-16C336,229.6,336.7,214.5,327.8,204.9z"/>
<path fill-rule="evenodd" clip-rule="evenodd" fill="#4875A1" d="M263.8,221.1l-14.5,24.2c-4.1,6.9-1.7,16.1,5.4,20.6l11.4,7.2
	c13,8.1,29.7,4.5,37.3-8.1l8.3-13.8L263.8,221.1z"/>
<path fill-rule="evenodd" clip-rule="evenodd" fill="#5388BD" d="M307,218.5c-10.8-12.2-29.1-13.7-40.8-3.5
	c-11.7,10.2-12.4,28.4-1.5,40.6c10.8,12.2,29.1,13.7,40.8,3.5C317.2,248.9,317.9,230.7,307,218.5z"/>
<path fill-rule="evenodd" clip-rule="evenodd" fill="#FF9939" d="M214.3,190.3l12-15.9c3.4-4.5,2.3-11.2-2.4-14.8l-7.6-5.8
	c-8.6-6.6-20.7-5.3-26.9,3l-6.8,9.1L214.3,190.3z"/>
<path fill-rule="evenodd" clip-rule="evenodd" fill="#4875A1" d="M190.9,230.4l-4.9-0.6c-11.8-1.4-20.8-12.3-19.9-24.2l1.6-21.6
	l47.9,5.8l-1.6,21.6C213.1,223.3,202.7,231.8,190.9,230.4z"/>
<path fill-rule="evenodd" clip-rule="evenodd" fill="#39628A" d="M187.9,230l-1.7-0.2c-12-1.5-21-12.4-20.1-24.2l1.1-15l29.5,3.6
	l-1.6,21.6C194.7,221.6,192,226.6,187.9,230z"/>
<path fill-rule="evenodd" clip-rule="evenodd" fill="#4875A1" d="M209.8,204.9l15.3-20.3c4.3-5.8,3-14.3-3-18.9l-9.7-7.5
	c-11-8.4-26.4-6.7-34.4,3.8l-8.7,11.6L209.8,204.9z"/>
<path fill-rule="evenodd" clip-rule="evenodd" fill="#5388BD" d="M189.5,213.2c-14.3-2.1-24.8-15.3-23.4-29.5
	c1.4-14.2,14.2-24,28.5-22c14.3,2.1,24.8,15.3,23.4,29.5C216.6,205.4,203.8,215.3,189.5,213.2z"/>
<path fill-rule="evenodd" clip-rule="evenodd" fill="#5F9DD9" d="M209,195.5c-4.8-0.4-9-5.5-9.4-11.4c-0.4-5.9,3.1-10.3,7.9-9.8
	c4.8,0.4,9,5.5,9.4,11.4C217.3,191.5,213.8,195.9,209,195.5z"/>
<path fill-rule="evenodd" clip-rule="evenodd" fill="#5F9DD9" d="M301.6,244.5c-4.7-0.8-8.5-6.2-8.5-12.1c0.1-5.9,3.9-10,8.7-9.2
	c4.7,0.8,8.5,6.2,8.5,12.1C310.2,241.2,306.3,245.3,301.6,244.5z"/>
<path fill-rule="evenodd" clip-rule="evenodd" fill="#FFCE57" d="M207,98.5c0,0,2.1,1.7,6.1,3.8l-5.6-0.5c0,0,21.5,26.3,61.7,12.1
	l-11.1-3.5c11.4-1.5,24.3-5.6,38.2-14.3l-23.9-2l20.4-6.7L207,98.5z"/>
<path fill-rule="evenodd" clip-rule="evenodd" fill="#FFCE57" d="M197,105.4c-1.2,0.1-14.2-3.4-14.2-3.4l12.4-3.4l4.7-14.3l3.1,15
	L197,105.4z"/>
<polygon fill-rule="evenodd" clip-rule="evenodd" fill="#FFCE57" points="234.1,101.5 207,98.5 235.9,83 232.4,90.1 264.4,83.7 "/>
<path fill-rule="evenodd" clip-rule="evenodd" fill="#B75227" d="M232.5,155.9l3.5-0.1c0.9,0,1.6,0.7,1.7,1.5l0,0
	c0.1,0.9-0.6,1.6-1.5,1.6l-3.5,0.1c-0.9,0-1.6-0.7-1.7-1.5l0,0C230.9,156.6,231.6,155.9,232.5,155.9z"/>
<path fill-rule="evenodd" clip-rule="evenodd" fill="#FFFFFF" d="M423.8,312.8c3.3,12.6,18.5,16.2,34,7.9
	c15.5-8.2,25.3-25.1,22-37.8c-0.1-0.3-8.6-49.8-83.9-133.5c-8.2-9.2-25.9-6.9-39.3,5c-13.5,11.9-17.7,29.1-9.5,38.2
	C417.2,270.7,423.7,312.5,423.8,312.8z"/>
<path fill-rule="evenodd" clip-rule="evenodd" fill="#EDD1C5" d="M423.8,312.8c3.3,12.6,18.5,16.2,34,7.9c4.6-2.4,8.7-5.6,12-9.2
	c-0.1-0.9-0.3-1.8-0.5-2.6c-0.1-0.3-8.6-49.8-83.9-133.5c-8.2-9.2-25.9-6.9-39.3,5c-1.1,1-2.1,2-3.1,3c0.4,3.5,1.8,6.7,4.1,9.3
	C417.2,270.7,423.7,312.5,423.8,312.8z"/>
<path fill-rule="evenodd" clip-rule="evenodd" fill="#211910" d="M620.6,335.5c3,0.9,5.1,2.7,4.9,4.6c-0.2,2.4-3.9,4.1-8.3,3.7
	c-2.3-0.2-4.4-0.9-5.7-1.9c0.8,0.2,1.7,0.4,2.6,0.5c4.4,0.4,8.1-1.3,8.3-3.7C622.5,337.5,621.8,336.4,620.6,335.5z"/>
<path fill-rule="evenodd" clip-rule="evenodd" fill="#211910" d="M261.4,433.8c0,0,86.9-32.4,90.6-119.7l-6.1-5.3
	c0,0,4.6,70.3-90.2,100.7L261.4,433.8z"/>
<path fill-rule="evenodd" clip-rule="evenodd" fill="#3A3229" d="M344.2,307c-8.2,0.8-14.4,5.2-13.7,9.7c0.7,4.6,7.9,7.6,16.1,6.8
	c8.2-0.8,14.4-5.2,13.7-9.7C359.7,309.3,352.5,306.2,344.2,307z"/>
<path fill-rule="evenodd" clip-rule="evenodd" fill="#3A3229" d="M368.7,220.2c0,0,14.3,72.2-9.3,95.3l-16.5-1.9
	c0,0,27.1-47.5,6.6-98.9C349.4,214.7,362.4,212.4,368.7,220.2z"/>
<path fill-rule="evenodd" clip-rule="evenodd" fill="#3A3229" d="M204.8,343.8c0,0,90.4,31.1,148.9-31.4l-1.5-7.8
	c0,0-41,55.1-136.6,17.6L204.8,343.8z"/>
<path fill-rule="evenodd" clip-rule="evenodd" fill="#FFDC82" d="M210.7,102.6c0,0-0.7,13.4-12.3,19.2c0,0,17.5-3.4,24.2-19.9
	l47.1-1.3l-14-3.2l15.8-4.4l-52.2,4.3l10.2-7.2L211.5,98l-14.3,2.2L210.7,102.6z"/>
<path fill-rule="evenodd" clip-rule="evenodd" fill="#FFFFFF" d="M615.2,265.2c10.9,0,19.7-8.9,19.7-19.7s-8.9-19.7-19.7-19.7
	c-10.9,0-19.7,8.9-19.7,19.7S604.3,265.2,615.2,265.2z"/>
<path fill-rule="evenodd" clip-rule="evenodd" fill="#FF9939" d="M623.8,236.5l41.4,32.2c7,5.4,8.2,15.5,2.8,22.5l0,0
	c-5.4,7-15.5,8.2-22.5,2.8l-41.4-32.2c-7-5.4-8.2-15.5-2.8-22.5l0,0C606.7,232.4,616.9,231.1,623.8,236.5z"/>
<path fill-rule="evenodd" clip-rule="evenodd" fill="#FF6D30" d="M623.8,236.5l41.4,32.2c5.5,4.3,7.5,11.6,5.3,17.9
	c-3.8,0.2-7.7-0.8-10.9-3.3l-41.4-32.2c-5.5-4.3-7.5-11.6-5.3-17.9C616.7,232.9,620.6,234,623.8,236.5z"/>
<path fill-rule="evenodd" clip-rule="evenodd" fill="#D6473E" d="M629.6,264l2.2-2.6c6-7.1,16.8-8,23.9-1.9l12.9,11l-24.2,28.5
	l-12.9-11C624.5,281.9,623.6,271.1,629.6,264z"/>
<path fill-rule="evenodd" clip-rule="evenodd" fill="#D6473E" d="M676.9,276.8l7.2,18.7c2,5.3-0.6,11.3-5.9,13.4l-8.6,3.3
	c-9.7,3.8-20.7-1.1-24.5-10.8l-4.1-10.7L676.9,276.8z"/>
<circle fill-rule="evenodd" clip-rule="evenodd" fill="#FF6057" cx="659.6" cy="286.6" r="20"/>
<path fill-rule="evenodd" clip-rule="evenodd" fill="#FF8980" d="M665.1,289.4c2.7,1.9,7.1,1.1,9.8-2c2.7-3,2.8-7,0.1-9
	c-2.7-1.9-7.1-1.1-9.8,2C662.4,283.4,662.4,287.4,665.1,289.4z"/>
<path fill-rule="evenodd" clip-rule="evenodd" fill="#5F9DD9" d="M294.3,220.8c-2-0.3-3.5-2.6-3.5-5c0-2.4,1.6-4.1,3.6-3.8
	c2,0.3,3.5,2.6,3.5,5C297.9,219.4,296.2,221.1,294.3,220.8z"/>
<path fill-rule="evenodd" clip-rule="evenodd" fill="#5F9DD9" d="M197.9,174.4c-2-0.3-3.5-2.6-3.5-5c0-2.4,1.6-4.1,3.6-3.8
	c2,0.3,3.5,2.6,3.5,5C201.5,173,199.9,174.7,197.9,174.4z"/>
<path fill-rule="evenodd" clip-rule="evenodd" fill="#F46125" d="M760.9,488.7l0.3,0.1c3.6,1.4,5.6,4.7,4.5,7.4
	c-1.1,2.7-4.8,3.8-8.3,2.4c-1-0.4-1.9-0.9-2.6-1.6c3.5,1.2,7,0.1,8.1-2.5C763.6,492.6,762.8,490.3,760.9,488.7z"/>
<path fill-rule="evenodd" clip-rule="evenodd" fill="#FFFFFF" d="M649.5,415.3c2.4,3,112.4,116.9,112.4,116.9
	S683.7,461.1,649.5,415.3z"/>
<path fill-rule="evenodd" clip-rule="evenodd" fill="#FFFFFF" d="M524.3,93.9c1.5,3.5,77.8,142.3,77.8,142.3S545.3,147,524.3,93.9z"
	/>
<path fill-rule="evenodd" clip-rule="evenodd" fill="#FFFFFF" d="M511.6,118.9c1.3,2.3,61.6,90.3,61.6,90.3S529.1,153.2,511.6,118.9
	z"/>
<ellipse transform="matrix(-0.7493 -0.6623 0.6623 -0.7493 -33.2292 870.7069)" fill-rule="evenodd" clip-rule="evenodd" fill="#A7C0BA" cx="148.2" cy="441.6" rx="12.8" ry="9.6"/>
<ellipse transform="matrix(-0.7492 -0.6623 0.6623 -0.7492 -12.2805 912.2737)" fill-rule="evenodd" clip-rule="evenodd" fill="#A7C0BA" cx="166.6" cy="458.5" rx="6.4" ry="4.8"/>
<path fill-rule="evenodd" clip-rule="evenodd" fill="#FFFFFF" d="M433.2,199c2.1,3.2,79,141.6,79,141.6S467,245,433.2,199z"/>
<path fill-rule="evenodd" clip-rule="evenodd" fill="#FFFFFF" d="M454.4,256.6c2.1,3.2,79,141.6,79,141.6S488.3,302.6,454.4,256.6z"
	/>
<path fill-rule="evenodd" clip-rule="evenodd" fill="#FFFEF5" d="M220.8,279c-2.9,18-15,30-29.6,27.8c-14.5-2.2-26.7-17.8-29.6-36.7
	c4.9,18.2,16.3,32.2,29.6,34.2C204.5,306.3,215.9,295.7,220.8,279z"/>
<path fill-rule="evenodd" clip-rule="evenodd" fill="#211910" d="M319.6,481.7c20.4,3.4,40.6,13.9,43.9,21.4
	c3.3,7.6-10.6,11-30.9,7.6c-20.4-3.4-39.5-12.2-42.8-19.8C286.5,483.4,299.3,478.3,319.6,481.7z"/>
<path fill-rule="evenodd" clip-rule="evenodd" fill="#E09B3C" d="M271.1,568.4c38.6,0,70.1-3.9,70.1-8.8s-31.5-8.8-70.1-8.8
	c-38.6,0-70.1,3.9-70.1,8.8S232.5,568.4,271.1,568.4z"/>
<path fill-rule="evenodd" clip-rule="evenodd" fill="#FF9939" d="M306.4,543.3c8.2-12.4,16.2-26,23.4-40.4
	c3.8-7.7-2.1-15.6-13.3-17.6c-11.2-2-23.3,2.7-27.2,10.4c-10,20-21.6,38.2-33,53.7L306.4,543.3z"/>
<path fill-rule="evenodd" clip-rule="evenodd" fill="#E5541A" d="M315.1,485.1c-10.7-1.3-22,3.3-25.7,10.6
	c-7.5,15-15.9,29-24.4,41.6l26.3-3.3c8.2-12.4,16.2-26,23.4-40.4C316.1,490.7,316.2,487.8,315.1,485.1z"/>
<path fill-rule="evenodd" clip-rule="evenodd" fill="#E5541A" d="M295.9,514.9c24.9-2.1,19.3,22.8,17.8,32.5
	c-1.6,9.7-26.4,12.3-51.2,14.4c-24.9,2.1-62.1,2.5-60.5-7.1C203.5,545.1,271,517.1,295.9,514.9z"/>
<path fill-rule="evenodd" clip-rule="evenodd" fill="#FF9939" d="M307,513.5c16.8,3.3,12.1,24.6,10.7,33.4
	c-1.6,10-27.4,12.8-53.1,15c-2.3,0.2-4.6,0.4-7.1,0.5c-7.7-1.6-12.5-4.5-11.8-9.2C247.1,544.8,278.4,526.1,307,513.5z"/>
<path fill-rule="evenodd" clip-rule="evenodd" fill="#FF6D30" d="M315.1,527.8l-0.1,0.6c-1.3,7.6-7,13.8-12.8,13.8
	s-9.4-6.2-8.1-13.8c0.4-2.1,1.1-4.2,2.1-6c-1,7.3,2.6,13.2,8.2,13.2C308.4,535.6,312.6,532.4,315.1,527.8z"/>
<ellipse transform="matrix(-0.7492 -0.6623 0.6623 -0.7492 884.2623 470.6494)" fill-rule="evenodd" clip-rule="evenodd" fill="#A7C0BA" cx="531.2" cy="67.9" rx="12.8" ry="9.6"/>
<ellipse transform="matrix(-0.7493 -0.6622 0.6622 -0.7493 905.3039 512.204)" fill-rule="evenodd" clip-rule="evenodd" fill="#A7C0BA" cx="549.6" cy="84.7" rx="6.4" ry="4.8"/>
<path fill-rule="evenodd" clip-rule="evenodd" fill="#A7C0BA" d="M389.6,95.4c0,0-56.6-44.6-53.5-43.8s33.3,13.2,31.4,10.5
	c-1.9-2.7-52.3-62-52.3-62l70,72.9l-23.3-6.6L389.6,95.4z"/>
<path fill-rule="evenodd" clip-rule="evenodd" fill="#FFFFFF" d="M797.5,479.9c0,0-56.6-44.6-53.5-43.8c3.1,0.8,33.3,13.2,31.4,10.5
	c-1.9-2.7-52.3-62-52.3-62l70,72.9l-23.3-6.6L797.5,479.9z"/>
<path fill-rule="evenodd" clip-rule="evenodd" fill="#FFFFFF" d="M748.2,311.8c37.2,39.1,47.3,66.5,21.4,63.7
	c-25.9-2.8-79.3-35-126.8-75.2c49,38.6,97.4,67.2,121.1,69.8C787.5,372.6,779.7,348.5,748.2,311.8z"/>
<path fill-rule="evenodd" clip-rule="evenodd" fill="#FFFFFF" d="M559.1,121.6c81.4,24,116.8,53.3,79.3,69.9
	c-37.5,16.6-135.6,14.9-232.1-2.4c97.2,14,185.7,14.7,220-0.4C660.6,173.5,630.8,146.8,559.1,121.6z"/>
<path fill-rule="evenodd" clip-rule="evenodd" fill="#FFFFFF" d="M541.8,112.1c62,5.9,91.7,22.1,66.9,39.3s-95.6,29.8-167.6,30.8
	c72-3.5,135.9-15.4,158.5-31.1C622.2,135.3,597,120.2,541.8,112.1z"/>
<path fill-rule="evenodd" clip-rule="evenodd" fill="#FFFFFF" d="M602,305c-15.7-0.4-31.4-0.7-47.1-1.1
	c-16.4,14.3-20.7,31.1-12.9,47.5l75.4-18.3L602,305z"/>
<path fill-rule="evenodd" clip-rule="evenodd" fill="#3A3229" d="M527.3,292c0,0,62.8-2.8,90.2,49l-2.2,4.8c0,0-17.3-43.6-84.5-37.6
	L527.3,292z"/>
<path fill-rule="evenodd" clip-rule="evenodd" fill="#3A3229" d="M607.5,274c0,0-13,51.7,4.3,67.6l11.4-1.4c0,0-20.8-32.8-8.7-68.6
	C614.5,271.6,611.5,268.6,607.5,274z"/>
</svg>
